subscriber_email_address,subscriber_first_name,subscriber_last_name,subscriber_state,subscriber_zip_code,subscriber_country,subscriber_company,subscriber_city,subscriber_dob,subscriber_phone,subscriber_address,subscriber_date_added,subscriber_ip,subscriber_extra_fields
jig.samani@redcappi.com,Jig,Samani,,,,,,,,,8/28/2017 17:16,,
john.boy@redcappi.com,John,Boy,,,,,,,,,8/28/2017 17:16,,
lyla.samani2@redcappi.com,Lyla,Samani,,,,,,,,,8/28/2017 17:16,,
lyla.samani@redcappi.com,Lyla,Samani,,,,,,,,,8/28/2017 17:16,,
lyla.smith@redcappi.com,Lyla,Smith,,,,,,,,,8/28/2017 17:16,,
tim.smith@redcappi.com,Tim,Smith,,,,,,,,,8/28/2017 17:16,,
lyla.john@redcappi.com,Lyla,John,,,,,,,,,,,
