"name_first","name_last","name_email","country","hobby","","rewrs 456"
"titu","panchal","titu@test12.com","indiA----","nothing & taking","",""
"Jigs","Gibs","nobes@56checking.in","","","cretaa@@@@",""
