"first_name","last_namel","email","country","hobby"
"titu","panchal","titu@test.123","ind!A","nothing & taking"
"Cick$","N()be","nobes@checking.checkign","","{gaming}{}"
"J!G$","G!b$","nobes@checking.checkign","new Jer$^",""
