"subscriber_email_address","subscriber_first_name","subscriber_last_name","subscriber_state","subscriber_zip_code","subscriber_country","subscriber_company","subscriber_city","subscriber_dob","subscriber_phone","subscriber_address"," "," "
"test09863@gmail.com","abhishek","mathur","rajasthan","380056","india ","infoline ","surat","18-Aug","34324324","sindhu12 park society ahemedabad ","",""
"xyz123@yahoo.com","priya","sharma","gujarat","564576","india","survey","vapi","04-24-01","45435","sciencity park rajkot","",""
