"subscriber_email_address","subscriber_first_name","subscriber_last_name","subscriber_state","subscriber_zip_code","subscriber_country","subscriber_company","subscriber_city","subscriber_dob","subscriber_phone","subscriber_address"," "," "
"ankur123@gmail.com","ankur","mehta","gujarat","380012","india ","globalxyzcompanies","ahmedabad","13-Mar","1234567","park society ahemedabad ","",""
"","","","","","","","","","","","",""
