subscriber_id,subscriber_email_address,subscriber_first_name,subscriber_last_name,subscriber_state,subscriber_zip_code,subscriber_country,subscriber_company,subscriber_city,subscriber_dob,subscriber_phone,subscriber_address,subscriber_date_added,subscriber_ip,subscriber_extra_fields,Segment Non Global,Segment Global,File Upload 1,File Upload 2
145966360,lyla.samani2@redcappi.com,,,,,,,,,,,9/5/2017 15:31,,,, ,x,y
145966361,lyla.samani3@redcappi.com,,,,,,,,,,,9/5/2017 15:31,,,,,x,y
145966362,lyla.samani4@redcappi.com,,,,,,,,,,,9/5/2017 15:31,,,,,x,y
145966363,lyla.samani5@redcappi.com,,,,,,,,,,,9/5/2017 15:31,,,,,x,y
145966364,lyla.samani6@redcappi.com,,,,,,,,,,,9/5/2017 15:31,,,,,x,y
145966359,lyla.samani@redcappi.com,,,,,,,,,,,9/5/2017 15:31,,,,,x,y
