"subscriber_email_address","subscriber_first_name","subscriber_last_name","subscriber_state","subscriber_address","global_a4"
"d24@gmail.com","d24","test","India","paldi","d24"
"","","","","",""
"","","","","",""
