subscriber_email_address,subscriber_first_name,subscriber_last_name,subscriber_state,subscriber_zip_code,subscriber_country,subscriber_company,subscriber_city,subscriber_dob,subscriber_phone,subscriber_address,subscriber_date_added,subscriber_ip,subscriber_extra_fields,Age,Gender,Sex,City location,Son
s@gmail.com,sahaj,,,,,,,,,,7/11/2017 10:31,,,27,Male,,Ghodasar,
h@gmail.com,preya,,,,,,,,,,,,,27,,Female,Paldi,Sahaj
