"First Name","Last Name","Email Address","Address","Birthday","City","Company","Country","Phone","State","Zip Code"
,,"seanhall2323@yahoo.com",,,,,,,,
,,"deanulis@gmail.com",,,,,,,,
,,"rhmillion@aol.com",,,,,,,,
,,"psafos1@tampabay.rr.com",,,,,,,,
,,"zarcocatalina@gmail.com",,,,,,,,
,,"rolywink@yahoo.com",,,,,,,,
,,"iluv2shop7830@aol.com",,,,,,,,
,,"shamrock1124@yahoo.com",,,,,,,,
,,"tjrobbi@yahoo.com",,,,,,,,
,,"bajerod1@yahoo.com",,,,,,,,
,,"kkvieillard@gmail.com",,,,,,,,
,,"ytimes1@hotmail.com",,,,,,,,
,,"bobbinell@aol.com",,,,,,,,
,,"maverick7075@verizon.net",,,,,,,,
,,"lvortouni@aol.com",,,,,,,,
,,"klburdett@aol.com",,,,,,,,
,,"nrsodaat@yahoo.com",,,,,,,,
,,"petersonicu@yahoo.com",,,,,,,,
,,"bobbicollett@comcast.net",,,,,,,,
,,"joydhsg13@gmail.com",,,,,,,,
,,"narsbaldesancho@yahoo.com",,,,,,,,
,,"pullerhyde@aol.com",,,,,,,,
,,"kathyandray@aol.com",,,,,,,,
,,"geodonh1@gmail.com",,,,,,,,
,,"sandra.graebing@yahoo.com",,,,,,,,
,,"poprivers@aol.com",,,,,,,,
,,"ort880@aol.com",,,,,,,,
,,"jlbaker8619@yahoo.com",,,,,,,,
,,"rubenx2@live.com",,,,,,,,
,,"cknreed@frontier.com",,,,,,,,
,,"berthaazicri@aol.com",,,,,,,,
