Name,Email
christine schwing,christine.schwing@yahoo.de
westermeier christine,christine.westermeier@gmx.de
geisler christine,christine45@gmx.de
daniel christ,christjosef@yahoo.de
christof klages,christof.klages@gmx.de
beckschewe christoph,christoph.beckschewe@outlook.com
dahlbdding christoph,christoph.dahlbuedding@web.de
christoph flebbe,christoph.flebbe@gmail.com
krais christoph,christoph.krais@gmx.de
christoph pickart,christoph.pickart@googlemail.com
rose christoph,christoph.rose@freenet.de
rihrig christoph,christoph.sonnenhof@icloud.com
mueller-rees christoph,christoph@mueller-rees.eu
christopher lei,christopher.leiss@gmx.net
christoopher rittinger,christopher.ruettinger@email.de
vogel christopher,christopher.vogel98@web.de
peter klark,christopherkuehl6@hotmail.de
miller christopher,christophermiller@gmx.de
christoph schmidt,christophgeorgschmidt@gmail.com
christoph matthiesen,christophmatthiesen@web.de
christoph schilling,christophschilling94@gmail.com
christoph schuster,christophschuster@t-online.de
ulbrich christoph,christophu1@gmx.de
zuber christoph,christophzuber@gmail.com
wellnitz chris,chriswellnitz@gmx.de
norbert christmann,chrnor2@web.de
fynn heye,chromagus@live.de
rother christine,chrother@hotmail.com
christa schlief,chrschlief@hotmail.com
christian selent,chrselent@googlemail.com
kth christian,chrskth@outlook.de
ciaston jacek,ciaston@web.de
gittlinger klaus,cid48@online.de
cihan akhan,cihanakhan1988@gmail.com
suna iztirk,cilginrizeli23@hotmail.de
meyer jirg,cineki@online.de
sebastian ciok,ciokpol@yahoo.de
cipriano sagheddu,cipri83@web.de
cirillo nicola,cirillonicola99@hotmail.ch
w. werner,cismar7@gmail.com
josef hans,citadelle@unitybox.de
lau ingeborg,citor@aol.com
jobmann christoph,cj_guard@yahoo.com
caj kessler,cj1107@web.de
jan sprungmann,cj193@web.de
wargo cody,cjwargo93@gmail.com
christopher klages,ckmacgyver1@web.de
thomanek claudia,ckockel@hotmail.com
kihn carsten,ckoehn@online.de
peter muffay,ckralt@arcor.de
claudia gschwindt,cl.gschwindt@web.de
claai peter,claass@versanet.de
rb claude flschner,claflasc@gmail.com
flamm klaus,claudefuego@yahoo.de
rb claude loetscher,claudeloetscher@hotmail.com
claudia rebmann,claudia_rebmann@yahoo.de
reinartz claudia,claudia-reinartz-der-friseur@gmx.de
fabig claudia,claudia.fabig@web.de
habel claudia,claudia.habel@ewetel.net
claudia obermeier,claudia.obermeier@gmail.com
rb claudia wachet wachet,claudia.wachet@gmx.at
buehler claudia,claudia@fcbuehler.de
claudia eichelsdirfer,claudia434@googlemail.com
claudia anand,claudiaanand@yahoo.de
domscheit claudia,claudiadom@web.de
claudia gschwindt,claudiagschwindt@web.de
kessler claudia,claudiakessler@arcor.de
rb claudia resch,claudiarueesch@gmx.ch
bernd woischnik,claudiaygaby@live.de
gadina claudiu,claudiu_95@web.de
claudiu glodeanu,claudiuglo@yahoo.com
richter claus,claus.richter@yahoo.de
radicke claus,clausradicke@web.de
clauss oliver,clauss.nidderau@freenet.de
steck claus,claussteck@hotmail.de
fedele clelia,clelia.fedele@bluewin.ch
weinig clemens,clemens-weinig@web.de
clemens thomas,clemens.loehr@gmail.com
poppe clemens,clemenspoppe@gmx.de
a victor,clever-optinvest@gmx.eu
christoph lieber,clieber@gmx.de
weber karl-heinz,clobalinvestment@gmail.com
zwiersch dominic,club_fighter@hotmail.de
christian marc,cm@michalzik.name
rb karoly csortan,cmc.reinach@intergga.ch
jacky mus,cmf13@online.de
carsten mus,cmus09@online.de
klug carsten,cnkg@gmx.de
norman rose,cnrsysteme@hotmail.de
martin kehmi,cns.usmedien@googlemail.com
andre koldrack,coach1982@gmx.net
jirgen kurp,coachtowealth@kurp.info
andre wegner,cobra66@online.de
beyer roberto,coca_beyer@web.de
borg corinna,cocaborg@googlemail.com
coc gamer,cocgamer12@gmail.com
wieland ron,code13@gmx.net
kuehn andreas,cogykuehn@gmail.com
ewert detlef,cohra@live.de
corinna huebner,cohueb@gmail.com
andreas seibert,collega_1985@gmx.de
andreas seibert,collega_1985@web.de
collu massimo,collu@gmx.de
vitalini ugo,colomboxf@hotmail.com
holschbach ginter,colonia.2000@gmx.net
prada raphael,com86@gmx.de
ion comarlau,comarlau@yahoo.com
wegener christoph,combler@web.de
alper aribal,commissionsmaniac.com@googlemail.com
walter schaechtl,companyline@web.de
hummels michael,complot@gmx.de
jens lorenzen,computerheimarbeiter@gmail.com
lorenzen jens,computerheimarbeiter@googlemail.com
george steven,concept-health@web.de
nunzio amini,connetty@yahoo.de
kilzer cornelia,conny@home-koelzer.de
blumenstein cornelia,connyblumenstein@gmail.com
brutsche conny,connybrutsche@gmx.de
ian wiltshire,connyian@yahoo.com
schmidt conny,connys1@gmx.de
conrad drewes,connyservice@aol.com
conny worm,connyworm@gmail.com
schindler hans-ulrich,conrad01@gmx.de
rita constantin,constantinrita@gmail.com
marcus lorenz,contact.m.lorenz@gmail.com
peter hirtig,contact@haertig-immo.de
pfeiffer jirg,cookberlin@gmx.de
pradeep subedi,coolboy.pradeep1992@yahoo.com
wolfgang laube,coole-idee@web.de
otto frosch,coolrolandfrosch@web.de
cora herfurth-keck,cora-herfurth-keck@gmx.de
cora bronsch,cora.bronsch@googlemail.com
cordelia mahn,cordelia.mahn@online.de
wirschig cordula,cordula_wuerschig@gmx.de
gabriele corinna,corinna174@yahoo.de
cornelia andersch,cornelia_andersch@gmx.net
brechmann cornelia,cornelia.b67@web.de
haufe cornelia,corneliahaufe@yahoo.de
cornelia schmidt,corneliaschmidt91@gmx.de
cornelius friedsam,cornelius_8@hotmail.com
usbeck corina,corsumedia@gmail.com
cosmin spirache,cosminspirache@yahoo.com
murat kocu,cosmogram@gmail.com
mennecke sabine,couantrysador345@gmail.com
sergej biber,cpaspass@gmail.com
pauly christian,cpauly1@gmx.de
christian peylo,cpeylo@gmx.de
farin claus-jirgen,cprivat@gmx.de
mueller volker,cptlong@web.de
borchert christa,cr.fr.borchert@t-online.de
ramsperger christian,cramsperger@gmail.com
randlshofer christian,crandlshof@aol.com
reni besser,crashy071102@hotmail.de
andrei iulian,crawling2k2002@yahoo.com
leitz gregor,crazy-gl@gmx.de
sinner alexander,crazyelements@gmx.de
oke hillermann,crazyoke@hotmail.de
weidner manfred,creasport@gmx.de
jeff creater,creatercreater@web.de
bright cris,crisasu56@yahoo.com
bremer heinz dieter,crisbeck@gmx.de
hannn cristian,cristi14@web.de
rb cristian giorgevic,cristian.giorgevic@gmail.com
cristina schmitt,cristina.arcip@yahoo.com
roberto abate,crudino11@yahoo.de
tschirpig norman,crunkcore20@yahoo.de
stahl christa,cs@pacific-restaurant.de
bocskor csaba,csaba.bocskor@gmail.com
imre csala-nagy,csalaimre@yahoo.de
danba uwe,csb-finanz@web.de
christine schmid,cschmid08@aol.com
christa schwan,cschwan@alice-dsl.net
sewald christiane,csewald63@gmail.com
christiane spiegel-hock,csh.mail@web.de
metzner peter,csimpex@aol.com
wespel walter,cswe@online.de
christian trunzer,ct@trunzer.eu
christoph tabel,ctabel@gmx.net
tallay cornelia,ctallay@gmx.de
gitze ingetraud,ctgoetze@gmx.de
schenk ludwig,ctludisch@sofortstart.de
ludi sneck,ctludwig@hotmail.com
miller walter,cuanita@web.de
christina fischer,cuhfashion@googlemail.com
kai cui,cuikai_nz@hotmail.com
rb ruth carmen kleinert,cuxxi333@gmail.com
schmitt carl-valentin,cv.schmitt@gmail.com
olaf oehlemann,cvdsspamm@gmail.com
winkler silke,cvsixtyseven@gmail.com
carsten weigt,cw911@live.de
wanderer christian,cwanderer@web.de
willma christoph,cwma@gmx.de
christian wilke,cwpm@online.de
zvezdan radisavljevic,cx72300@live.de
michael stuhlmann,cyberknight@arcor.de
kitzinger bernd,cybot6286@aol.com
schreijig jirgen,cycleburner@arcor.de
cyril hruscak,cyril.hruscak@gmx.de
schobel mathias,cytomed@web.de
czanowski anja,czanowski@live.de
czarny heinrich,czarly66@arcor.de
roland nees,czekalawin@aol.com
czeslaw koleczko,czeslaw-koleczko@kabelmail.de
koleczko czeslaw,czeslawkoleczko533@googlemail.com
rb christopher zettel,czettel86@gmail.com
jaroslaw czuba,czuba.j@gmx.de
rb denis kauz,d-kauz@bluewin.ch
malik dimple,d-malik@hotmail.de
matthias flor,d-matic@foni.net
sitner dmitri,d-nsitner@gmx.de
pinkert daniel,d-pinkert@web.de
dajana rehfeld,d-rehfeld@hotmail.de
amarouch dorothea,d.amarouch@gmx.de
daniel apel,d.apel.trade.fx01@gmx.de
aumann dennis,d.aumanii@gmx.de
doris barzen,d.barzen@web.de
detlef birkfeld,d.birkfeld@gmail.com
detlef birkfeld,d.birkfeld@web.de
drake dieter,d.dieter982@gmail.com
daniel eixenberger,d.eixenberger@googlemail.com
dieter neumann,d.eneumann@live.de
gahlert dieter,d.gahlert@web.de
giesendorf dieter,d.giesendorf@t-online.de
daniel grosam,d.grosam@proma-vm.de
rb dietmar hanler,d.hanler@gmx.at
daniel hillinghorst,d.huellinghorst@gmail.com
ifland d.,d.ifland@arcor.de
swoboda hans-dieter,d.j.swoboda@web.de
jasarevic danijel,d.jasarevic2304@yahoo.com
david kanke,d.kanke@gmx.de
karliner daniel,d.karliner@freenet.de
detlef kihn,d.kuehn@docfc.de
kumle daniel,d.kumle@googlemail.com
dieter lachner,d.lachner@gmail.com
daniel langbecker,d.langbecker@web.de
dimitri litowtschenko,d.litow@hotmail.com
doris mehta,d.mehta@gmx.net
music dragisa,d.music@web.de
noack dietmar,d.noack21@gmx.de
nowak dieter,d.nowak2@gmx.de
nurbegovic damir,d.nurbegovic@web.de
redemann dieter,d.redemann@yahoo.de
resing dieter,d.resing@web.de
detlef rilicke,d.ruelicke@gmail.com
deniz simge,d.s.bau@hotmail.de
sander detlef,d.sander@liegenschaftswert.de
scheel dirk,d.scheel@email.de
horst-dieter schneider,d.schneider@gfd.net
daniel strauss,d.strauss82@googlemail.com
dominik taboada,d.t.galino@gmail.com
dietmar thoerner,d.thoerner@t-online.de
daniel thum,d.thum@hotmail.de
weisheim daniel,d.weisheim@gmx.de
delitzsch daniel,d11daniel@aol.com
manthey daniel,d1ebay@aol.com
praulins maris,d3d3@mail.lv
daniel pintar,d4n@web.de
danijel cuturic,d4nijel@hotmail.de
petra hankel,d7hankel7@yahoo.de
michael mayr,da-miche@web.de
dennis singh,da.inda.18@googlemail.com
daniel kiwitt,da.ki@live.co.uk
adriano ventura,dacostaventura@web.de
dallmann andreas,dadallmann@aol.com
plazanin dalibor,dado-74@hotmail.de
hofmann mathias,dadowmatze@aol.com
oliver daehne,daehneoliver@gmail.com
kisbach daevid,daevidk@web.de
davidova daniela,daffeli@yahoo.com
noack dagmar,dagmar01458@yahoo.de
ziehe detlef,daguerre@t-online.de
daher alain,daher-alain@hotmail.com
sylvia steinbock,daimion29@yahoo.de
ramazan dasdelen,daimlerevo_ii@gmx.de
ainsworth daniel,dainsworth96@yahoo.com
alfred daiser,daiseralfred@gmx.de
sascha fischer,daisuke86@web.de
rb gunther schmidt,daisy23568@gmail.com
wiesbacher grit,daisybj63@web.de
dietrich adolf,dak@genial.ms
dallmeyer juergen,dallmeyerjd@gmail.com
andreas kraemer,dalmi1@web.de
mascher danny,damarama@gmx.de
meier daniel,dame64@web.de
arturo raffaele,damelioraffaele@hotmail.com
malotka damian,damian.malotka@gmx.de
damiano wloka,damiano.wloka@gmx.de
damiati ahmed,damiati36@gmail.com
dammann frank,dammann.f@gmx.net
damm matthias,dammi4@arcor.de
mangelsdorf dana,dana.mang@web.de
danut barbacaru,dancash555@yahoo.de
geuskens simon,dance81@gmx.de
fuchs iliane,dancefloor2@web.de
danebrock rolf,danebrock@maxi-dsl.de
anh duc,dang688@gmail.com
hahn daniel,dangerdanxxl@googlemail.com
sonne daniela,dani.sonne@gmx.de
daniel zell,dani9211.dz@googlemail.com
daniel irrasch,danie.andrea.jessica@hotmail.com
daniel mirgner,daniel_2oo5@hotmail.de
daniel eisenhardt,daniel_eisenhardt@yahoo.de
eppler daniel,daniel_eppler@web.de
daniel ernst,daniel_ernst@hotmail.de
daniel hofmann,daniel_h_14@hotmail.de
daniel henn,daniel_henn@freenet.de
lehmann daniel,daniel_lehmann@live.de
daniel rech,daniel_rech@msn.com
xignore xmusik,daniel_trienenjost95@gmx.de
zihm daniel,daniel_zihm@web.de
daniel bauer,daniel-edward@gmx.de
letsch daniel,daniel-letsch-2006@web.de
daniel pahl,daniel-pahl@web.de
maier daniel,daniel-rene@gmx.net
daniel schmitz,daniel-schmitz78@gmx.de
daniel uster,daniel-uster@web.de
daniel wendt,daniel-wendt@live.de
isensee daniel,daniel.boerse100@gmail.com
daniel cieslik,daniel.cieslik@online.de
daniel plugaru,daniel.florin25@yahoo.com
daniel hanneken,daniel.hanneken@gmx.de
daniel keller,daniel.keller4@gmx.de
daniel laumerich,daniel.laumerich@gmx.de
daniel memmler,daniel.memmler@me.com
daniel rasdymacho,daniel.rasdymacho@web.de
sittner daniel,daniel.sittner@gmx.de
daniel uhlemayr,daniel.uhlemayr@gmail.com
zweininger daniel,daniel.zweininger@gmx.de
korfmann daniel,daniel@korfmann-online.de
daniel zvada,daniel@zvada.de
mihlegger daniela,daniela.muehlegger@gmx.de
rb daniela muth,daniela.muth@gmx.at
skrybeck daniela,daniela.skrybeck@gmx.de
busch sven,danielabraumueller@web.de
daniela kubik,danielakubik20@googlemail.com
daniela ring,danielapaetz@web.de
daniel arendt,danielarendt89@yahoo.de
wefewf rtwe,danielaushamm@hotmail.de
daniel diehl,danieldiehl@hotmail.de
ancora daniele,danieleancora@web.de
akinlola fadiya,danielfadick@yahoo.com
goebel daniel,danielgoebel1@gmx.net
ginther daniel,danielguenther1@gmx.net
daniel dziurosz,danieljamesbond007@web.de
lohmann daniel,daniellohmann@web.de
daniel matriciani,danielmatriciani@yahoo.de
nico hartmann,danielmhl@web.de
minzel daniel,danielmuenzel@gmx.de
ruppert daniel,danielruppert@freenet.de
daniel schluifelder,danielschluifelder@yahoo.de
werner daniel,danielw.cam@gmx.de
jo robin,danijjn_78@web.de
a danilo,danilo.kailbach@gmx.de
danilo rcker,danilo.ruecker@gmail.com
tsakova daniela,danimari@abv.bg
ritter daniela,danislowik@web.de
kleindienst danny,danny.1992@gmx.de
danny ahlborn,danny.ahlborn@gmail.com
danny schkade,danny4376@googlemail.com
nitka martin,dannymmm2001@yahoo.de
daniel hagen,dano_dh@hotmail.de
strub horst,dantler@gmx.net
babai attila,danton04@web.de
michael hanne,dany201281@hotmail.de
amadeus gross,daraise@hotmail.de
darbyou mohamed,darbyoum@hotmail.com
peter robert,darcalculatoare@yahoo.com
wanschura michael,dare1972@web.de
korski dariusz,darius.gorski@gmx.de
darius schirmann,darius.schuermann@googlemail.com
wolski dariusz,darius.wolski@kabelmail.de
kiesner rico,darkboy.sweet@googlemail.com
kai marchlowitz,darkgismo@hotmail.com
dunkl andreas,darkkopp@arcor.de
jannik becker,darklegendts@web.de
thomas nadine,darkness666999@gmx.de
darko cetojevic,darko.cetojevic@web.de
robin mohns,darkprophecy2005@aol.com
tschernow florian,darkwolf9800@gmx.de
finke pierre,darky.1987@yahoo.de
ksel daria,darlina@eclipso.de
thomas simon,darmbach@web.de
pawel pawlowski,darpl@msn.com
roland schimpf,darquoy@gmail.com
little darrel,darrellittle123@yahoo.de
randy moser,dart88@web.de
piessnegger wolfgang,dartwolf@gmx.de
matuschek ronald,dasbeste.info@gmail.com
david schluifelder,daschlui@gmail.com
stefan glensk,dasrichtige@googlemail.com
dastig uwe,dastiguwe@yahoo.de
patrick hauk,daswars885@gmail.com
ralph schiller,data-bbi@gmx.de
jean kassmann,daten@chiptrick.de
hinrichs lucas,datingmail123@gmx.de
markus dausch,dausch.markus@yahoo.de
david oppermann,dav6nad@web.de
dave lesch,davelesch@hotmail.de
patrick simmet,davi_doof@web.de
junge junge,davianho@web.de
david rutz,david_320_@hotmail.de
david fredrich,david-fredrich@web.de
krischtal david,david-k86@gmx.de
david krischtal,david-krischtal@gmx.de
moldenhauer david,david-moldenhauer@gmx.de
taulien david,david-taulien@hotmail.de
david biller,david.biller@outlook.com
drescher david,david.g.d@web.de
kala lana,david.hof555@gmx.de
jethro david,david.jethro@gmx.de
david kauffmann,david.kauffmann@hotmail.de
mihler david,david.mhler@googlemail.com
david ringwelski,david.ringwelski@gmail.com
david schweighoefer,david.schweighoefer@live.de
david bockmann,davidbockmann@yahoo.de
davide carella,davidecarella1@hotmail.com
david hauck,davidhauck93@gmail.com
david rainer,davidpatrickrainer@web.de
david raymann,davidraymann@gmx.net
david raymann,davidraymann1984@gmail.com
rose david,davidrose@hotmail.de
schiler david,davidschueler80@aol.de
stumpf david,davidstumpf21@gmail.com
david zintha,davidvivi1990@gmail.com
david peter,davidweimar1@gmail.com
davor vuckovac,davor.vuckovac@gmx.de
dawid pecold,dawidas1231234@gmx.de
jon liser,daxmann@t-online.de
hannes pertersen,daybirth13@gmail.com
antonia bakogianni,db-multimedia@arcor.de
bier dietmar,dbier@gmx.de
buchold dieter,dbuchold51@web.de
big dan,dburdu@gmx.net
desiree roth,dcr060213@gmail.com
kotsch roland,dcsrkotsch@freenet.de
soboll reimund,dd-boll@gmx.de
perlik herbert,ddleuben@yahoo.de
dutt dennis,ddutt@gmx.net
dmn dghjj,de_ko10@web.de
kress christoph,de-basar@gmx.de
pusch detlev,de-pusch@t-online.de
much detlef,de.much@freenet.de
ulrich wagner,dear.uli@gmail.com
rb diana kapin,deathcsillag@freemail.hu
heinitz brenden,deathfang2002@yahoo.com.au
rb philipp debellak,debellak.philipp@gmail.com
rb debildupa dasfwegeqrgqergve,debildupa@gmail.com
tesic dejan,dedr95@freenet.de
bernd lippa,deeboy@live.de
oleg deede,deede88@web.de
lippa bernd,deenboy33@gmail.com
degner torsten,degnerhst0606@arcor.de
may sabine,deine.zukunft@clever.ms
bambi hulde,deinemutter1612@yahoo.de
andreas gkousdas,deingeldsystem@gmail.com
felix kirsch,deintot199@web.de
deistung klaus,deistung@gmx.de
mihajlovic dejan,dejan1989@gmx.de
dejan ljubicic,dejanljub@gmail.com
detlef manske,dematherm@googlemail.com
steinmiller denis,den.stein@yahoo.de
denecke andreas,denecke@outlook.com
stefan laus,denhabeichauch@yahoo.de
prus emil,denialprus@gmail.com
buchholz denis,denis_buchholz@web.de
siegmund denis,denis_lietz@web.de
siegmund denis,denis_siegmund@web.de
leinweber denis,denis.drako@web.de
hopp denis,denis.hopp@gmx.de
denis lazarev,denis.lazarev@gmx.de
schwarz denis,denis.schwarz.1@web.de
denis schwarze,denis.schwarze@gmail.com
denis w,denis.wiebe94@web.de
denis karanfilovski,denis1903@hotmail.de
fuad celjo,denis526@msn.com
deniz yadel,denizyadel@yahoo.de
denni schwentker,denni6killer@hotmail.de
bleil dennis,dennis-bleil@t-online.de
dennis kaval,dennis-kaval@web.de
denis schaefer,dennis-schaefer@rambler.ru
dennis alles,dennis.alles8@hotmail.de
dennis binder,dennis.binder@gmx.net
dennis elsholz,dennis.elsholz@showstar-entertainment.com
dennis heine,dennis.heine@web.de
dennis heinig,dennis.heinig@hotmail.de
dennis karst,dennis.karst@gmx.de
dennis kunz,dennis.kunz87@gmx.de
groi dennis,dennis.makros@gmail.com
spann dennis,dennis.spann@online.de
hill dennis,dennis1985hill@web.de
dennis moser,dennis83devil@web.de
berendes dennis,dennisb024@googlemail.com
dertscheny dennis,dennisdertscheny@gmail.com
kulig dennis,denniskulig@gmx.de
dennis posin,dennisposin@gmail.com
sick dennis,dennissick@web.de
dennis feist,dennisww231@t-online.de
denny benthin,dennybenthin@googlemail.com
benthin denny,dennybenthin@hotmail.de
bochmann denny,dennybochmann@gmx.de
krispin denny,dennykrispin@web.de
radde tobias,dentoja.radde@gmx.de
knopp ginther,denver.co@web.de
krause dennis,denyostyle@gmx.de
#NAME,depur11@hotmail.com
sebastian jiger,der_gaertner_1992@hotmail.de
jan-oliver jiri,der_mit_der_banane_tanzt@hotmail.de
kruse andreas,der-andreas1@web.de
david brunnert,der-bad-doktor@live.de
hammermueller siegfried,der-erfolgsladen@web.de
schulze dietmar,der-graf-schulze@web.de
hofmann jan,der-jan-hofmann@web.de
y alexander,der.fries@gmx.de
neitzel gabriele,der.geldplan@googlemail.com
wolf thomas,der.kurze.spruz-@t-online.de
leonhardt jens,der.leo-jens@freenet.de
steve briutigam,derboss828@gmail.com
giovanni bocale,derderminer@hotmail.de
#NAME,dergrauewolff@aol.com
claude jauernig,derhetzer@googlemail.com
markus derichs,derichs.markus@googlemail.com
jens reichert,derjensrichter@gmx.de
mirko kreikenbaum,derkreiko@arcor.de
christian derksen,derksen.christian@web.de
manuel lskak,dermankenner@gmx.de
dermann peter,dermann.p@googlemail.com
rb stefan schtzenhofer,derschuetzi44@live.at
dertlioglu oguzhan,dertlioglu.o@live.de
ueskan derya-khan,deryaueskan@gmail.com
reisch stephanie,desderni-monk.de@web.de
bachmann swetlana,desoxeribonuklease@yahoo.de
rido rausch,desridora@gmail.com
klaus dorgerloh,destiny2success@gmail.com
wolny detlev,det.de61@hotmail.de
nadja konrad,detka89@web.de
jentsch detlef,detlef-jentsch@t-online.de
rogalla detlef,detlef-rogalla@t-online.de
detlef birger,detlef.buerger@outlook.com
dal-pozzo detlef,detlef.dal-pozzo@gmx.de
detlef herbrich,detlef.herbrich@freenet.de
kunde-rockendorf detlef,detlef.kunde@gmail.com
lange detlef,detlef.lange@kabelmail.de
miller detlef,detlef.mueller10@freenet.de
detlef frank,detleffrank@gmx.de
lindner detlef,detleflindner70@gmx.de
detlef moerbitz,detlefmoerbitz@gmail.com
schaefer detlef,detlefschaefer@gmx.de
detlev kiesslich,detlev@kiesslich.de
masur detlef,detmas2@web.de
csaba detrich,detrich.csaba@gmail.com
reuter gottfried,deus.pacis@gmail.com
daniel deutinger,deutinger.boadu-sun@live.de
igor gorte,devigo02@googlemail.com
kristijan dujakovic,devilcheater23@gmail.com
mike bewer,devilinu19@hotmail.de
stefan bartsch,devilkazuya1@web.de
pilz hans,deviltry@live.de
sonja persch,devilwolf1990@googlemail.com
devin lehmann,devin1@hotmail.de
kaus holzner,devisen@go4more.de
janak gerson,devolfe@web.de
jan hoffert,dewdreerew@yahoo.de
sabrina lippke,dewe-giessen@t-online.de
danny drusch,dexder@gmx.net
stefan dircksen,dezerthiphop@gmail.com
fischer dirk,df@dirkfischer.eu
sascha beck,dg20dg@hotmail.de
cseris michael,dh0gmc@t-online.de
dieter hankel,dhankel@web.de
miller steffen,dhl123@live.de
waldemar kretschmann,diablo2175@web.de
schnee heidi,diamanten61@aol.de
niilein diana,diana.nuesslein@web.de
peter schnellinger,dianamalindi@aol.com
mccarty helen,dianamc@gmail.com
weigt diana,dianaweigt@web.de
kuite diane,diane@kuite.de
bezold dieter,dibe63@t-online.de
klein david,dick_dave@web.de
stegner dietmar,dido1@aol.com
tilo schwan,die-schwaene@web.de
zimmermann dietrich,die-zi@web.de
brennert ulf,die.brennerts@googlemail.com
tusch michael,die.tuschys@gmx.de
maywald sebastian,die7pforten@gmx.net
schober confried,diealltagshelfer@aol.de
zaremba dieter,diebru.zaremba@web.de
eggert uwe,dieeggerts1@gmail.com
kerim saran,dieheiligebombe@hotmail.de
diehl gerhard,diehlgerd@web.de
schletze tina,diehnie@yahoo.de
florian kropf,diehorde@gmx.de
andreas schulz,dieidee@live.de
wagner sascha,diemachtderschatten@web.de
meye dieter,dieme1943@gmail.com
peter diemo,diemopeter@yahoo.de
kister torsten,dienstleistungen@freenet.de
kroii birgit,dienstleistungundserviceug@yahoo.de
ceteras constantin,dienstovb@yahoo.de
pakusch heinz-dietrich,diepa@posteo.de
dierk gerlach,dierk.gerlach@gmail.com
dieter schwarzkopf,dieschwarz@t-online.de
maik hildebrand,dieseldicker@freenet.de
bussinger dieter,dietbuss@aol.com
berrang dieter,dieter_b@hotmail.de
gotthardt dieter,dieter_gotthardt@web.de
clasen dieter,dieter-clasen@web.de
dieter retzlaff,dieter-retzlaff@kabelmail.de
zirbel dieter,dieter-zirbel@web.de
bortel dieter,dieter.bortel@gmail.com
bruederle dieter,dieter.bruederle@t-online.de
dieter cerfontaine,dieter.cerfontaine@gmx.de
engelhard dieter,dieter.engelhard@web.de
greitsch dieter,dieter.greitsch@gmx.de
liebe dieter,dieter.liebe@gmx.de
mayr dieter,dieter.mayr-hvm@t-online.de
osterwald dieter,dieter.osterwald@gmx.de
pausch dietrich,dieter.pausch@web.de
dieter hans,dieter.scheu-scheu@web.de
schlinkmann dieter,dieter.schlinkmann@gmx.de
dieter siepert,dieter.siepert@web.de
wilzlein dieter,dieter.waelzlein@web.de
dieter walber,dieter.walber@t-online.de
zerbe dieter,dieter.zerbe@freenet.de
branz dieter,dieter5903@gmx.de
dieter bethke,dieterbethke@gmx.de
bohla dieter,dieterbohla@arcor.de
dieter heinz,dieterdomain.com@gmail.com
gellermann dieter,dietergellermann@gmx.de
dieter kaeppler,dieterk38@googlemail.com
reich dieter,dieterreich@hotmail.de
stark dieter,dieterstark@foni.net
troess dieter,dietertroess@yahoo.de
frank diether,diether.frank@gmx.de
dietl manuela,dietl-manuela@gmx.de
rb dietmar biel,dietmar_biel@web.de
lau dietmar,dietmar-lau@gmx.de
bethke dietmar,dietmar.bethke@web.de
dietmar doerr,dietmar.doerr@live.de
schkade dietmar,dietmar.schkade@t-online.de
volk dietmar,dietmar.volk@yahoo.de
voi dieter,dietrichvonbonn@yahoo.de
dietze peter,dietze-p@web.de
florian dietzel,dietzel.florian@web.de
diewock benjamin,diewock-einkauf@gmx.de
f. d.,difa@mail.de
boose sven,dig.big@gmx.net
dietrich gast,digast@web.de
dieter gathge,digat@t-online.de
marian kelner,diger29@gmx.de
dieter zimmermann,digezi_03802@operamail.com
marcel ebbert,digihonk@googlemail.com
jens gliser,digitaloverflow85@gmail.com
digsby raymond,digsby.raymond@gmx.de
dieter helmer,dihelm@aol.com
dirk kandetzki,dikey.88@web.de
di hajo,dilandro@web.de
rb dylan nobis,dilon@live.at
george zingales,dilsay286@gmail.com
massimo diluccia,diluccia@email.de
stab dimitri,dima_rabota@gmx.de
stab dimitri,dima-rabota@gmx.de
marschall dirk,dima63@gmx.net
schlothauer dimitrij,dimasamail@googlemail.com
dieter menschel,dimensche@gmx.de
erlenbusch dimitri,dimer79@gmx.de
kritikos dimitrios,dimi.kri@gmail.com
sirocenko dmitrij,dimik30@gmail.com
dimitri reschetnikov,dimitri-reschetnikov@web.de
dimitri gleich,dimitri.gleich@outlook.com
dimitri gergenreider,dimitri83@gmx.net
michailidis dimitrios,dimitriosmichailidis@yahoo.com
sakkas dimitrios,dimitriossakkas13@googlemail.com
dimitrij ugolnikov,dimoncss@gmail.com
martin schmid,dimsch1@gmx.de
bozek adalbert,dingens2@gmx.at
dinkar kokje,dinkardkokje@gmail.com
dino gatti,dinogatti14@googlemail.com
dietrich richter,dirimol@gmx.de
dirk anskat,dirk_anskat@arcor.de
dirk mardey,dirk_mardey@yahoo.de
demant dirk,dirk-demant@t-online.de
dimkes dirk,dirk.daemkes@gmx.de
dirk eikhoff,dirk.eikhoff@yahoo.com
gosemirker dirk,dirk.gosemaerker@web.de
hatscher dirk,dirk.hatscher@gmx.de
reichel dirk,dirk.reichel1@web.de
dirk schelenz,dirk.schelenz@yahoo.de
dirk weii,dirk.weiss28@live.de
heintschel dirk,dirk@heintschel.com
seidel dirk,dirk@seidel-homberg.de
dirk massing,dirki021@freenet.de
klein dirk,dirkklein@gmx.net
kter-luks dirk,dirkkueterluks@live.de
liebsch dirk,dirkliebsch@aol.com
nerling dirk,dirkmmo@gmail.com
mueller dirk,dirkmueller98@googlemail.com
hohls dirk,dirko2108@web.de
dirk oertel,dirkoertel@gmx.net
podzuweit dirk,dirkpodzuweit@yahoo.de
sauermann dirk,dirksauermann@gmx.de
sauermann dirk,dirksauermann@web.de
dirk schelenz,dirkschelenz@yahoo.de
dirk niessen,dirkundflo@freenet.de
dirk van,dirkvandergugten@gmail.com
ruffing harry,dirty-harry@gmx.org
sabine may,disa2112@email.de
denis markowitsch,disco1976@gmx.de
alexander penner,dissant@web.de
sylejmani ejub,divanjoll@aol.com
dietmar wellmann,diwelli@web.de
dieter werner,dj_dieter@web.de
zeljko naletilic,dj-daishee@web.de
reichel alexander,dj-dig@web.de
rb josef danzer,dj-j@gmx.at
s. christian,dj-juma@web.de
christos bitzenis,dj-maestro@hotmail.de
radic luka,dj-music@gmx.de
pascal dirr,dj-pd-events@gmx.de
adnan berisha,dj-reggto@hotmail.de
pia koch,dj.blumentritt@web.de
jnsch janik,dj01yolo@gmail.com
djabiri irfan,djaloshi23@live.de
andreas djatlov,djatlov.andreas@gmail.com
lukacic miro,djay_m@hotmail.com
peukert mathias,djbomberpilot@aol.com
john peter,djconsulting@gmx.de
dominique drebing,djdre6@web.de
lars skupch,djhammer@gmx.de
kevin haselmeier,djhandsup22@gmail.com
ben fischer,djmaglight@googlemail.com
dominik walther,djoblack@gmx.de
djordje acimovic,djordje.acimovic@arcor.de
hfges patrick,djpinky1@web.de
sascha reiter,djsequ@hotmail.de
hatzig jens,djsinus@web.de
grner dennis,djsternburg@gmx.de
jean luc,djsugarbrown@googlemail.com
dennis jxfcpner,djuepner@googlemail.com
kritikos dimitrios,dk.music4@gmail.com
klause dieter,dklause@aol.com
dr. dieter-klaus,dkmoeller50@gmail.com
kistner dieter,dkndh@online.de
bufu jasin,dkrischtal@gmail.com
k. dieter,dkrmandau@web.de
landbrecht dietmar,dlandbrecht@web.de
thomas fraass,dlberfurt@gmx-topmail.de
fink axel,dlnint@hotmail.de
horn ginther,dm5el@aol.com
mittelhiuser dieter,dmihaeu@web.de
david len,dmillo009@gmail.com
dmitrij edel,dmitrij_edel@web.de
dmitrij diener,dmitrijdiener@gmx.de
marlies jankowski,dmjanki@aol.com
behrends berend,do17@gmx.de
rb otto nemeth,doboz9@gmail.com
tobias pliier,dobsd.m@gmx.de
steinbeck rudolf,doc-steinbeck@gmx.de
schultz-wittner thomas,doctortom@gmx.de
dominic kirner,dodo2221@live.de
mitrance dongmo,dodydelsie5@yahoo.fr
dirig harald,doerig@gmx.de
norbert doering,doering-zz@outlook.com
ralf doersching,doersching@aol.com
kaya dogan,dogan.kaya@dogan-kaya.de
dogan gilmez,dogankocgiri68@hotmail.de
christopher grochow,dogsitter-hsk@gmx.de
dogus cakin,dogus.cakin@hotmail.de
kisler dietmar,dok_48@web.de
damir dokic,dokic-damir@web.de
huu kim,dokimhuu@web.de
steven hinz,doktor1907@web.de
hakan sier,doku70@googlemail.com
dominic natterer,dom.n@web.de
thorsten marten,domadoma@email.de
mayala domingo,domayalandez@yahoo.de
daniel cowan,domeran@mail.com
dominik vogel,domi_vogel@web.de
dittmann domingo,domingodittmann@yahoo.de
dominic hofmann,dominic.hofmann@gmx.de
ronny gomez,dominicano@hotmail.de
dominik karnaus,dominik_karnaus@gmx.de
dominik wachtendorf,dominik.18@hotmail.de
beck dominik,dominik.beck1@web.de
dominik fuhr,dominik.fuhr@gmx.de
dominik kihn,dominik.kuehn1@gmx.de
dominik salmen,dominik.salmen@googlemail.com
dominik steinmann,dominik.steinmann@gmx.de
dominik bea,dominikbea87@googlemail.com
dominik dickert,dominikdickert@yahoo.de
dominik hammerich,dominikhammerich@yahoo.de
barthel michele,dominique.barthel@gmx.de
dominique de,dominique.dewispelaere@gmx.de
nolan chris,dominoschris@gmail.com
mayer hartmut,dompaar2005@yahoo.de
schliep donald,donald.schliep@web.de
ottmann alfred,donalfredo8@gmx.de
rb don castor,doncastor@gmail.com
domenica nicastro,done@arcor.de
andreas schiffer,donnie.dogma@gmail.com
theo eifrig,doorclient@web.de
scholz jirgen,dorado88@web.de
bernd gnauck,dorchen@tele2.de
doreen prescher,doreen.prescher@gmx.de
dorenkamp gustav,dorenkamp@web.de
ralf hinz,dorenton@googlemail.com
saar dorian,dorian.saar@outlook.com
danilo kihn,dorian.yates@gmx.de
doris waschler,doris.waschler@gmx.de
gleich doris,dorisgleich@gmail.com
doris palzer,dorispalzer59@gmail.com
dorota hudziak,dorota.hudziak@gmx.de
derichs dorothea,dorothea.derichs@gmail.com
uta bartel,dorothee1969@web.de
thorsten bartel,dorothee1969@yahoo.de
georg weber,dorothewbr@aol.com
santos virgilio,dossantosvirgilio@yahoo.de
marc martin,double_m_18@hotmail.com
von feilitzsch phillip,doubleblack94@gmail.com
pehmiller wolfgang,doubleyoupi@email.de
helwig silas,dounabis1998@gmx.de
ouistinof ersof,doustinofersof@yahoo.com
philipp dietmar,dp-inzell@email.de
birger detlef,dp.buerger@web.de
daniel pahl,dpahl77@googlemail.com
heinz-dietrich pakusch,dpakusch@yahoo.de
leon ballmer,dpcag.ch@gmail.com
david pehl,dpehl86@gmx.de
detlef prommer,dprommer@t-online.de
saleh saleh,dr_saleh_hussain@yahoo.com
armin guttzeit,dr_water@live.de
hermann dietrich,dr-dietrich@web.de
bober norbert,dr.bober1@freenet.de
dietrich uwe,dr.dietrich-kiel@t-online.de
tiberius dittel,dr.dr.dittel@gmail.com
joerg winkelkoetter,dr.drehstrom@googlemail.com
fenzlein volkmar,dr.fenzlein@erkowell.de
stein joachim,dr.joachim.stein@googlemail.com
richter joerg,dr.joerg_richter@web.de
ursula dr.karstaedt,dr.karstaedt@gmail.com
khedhayir adnan,dr.khedhayir@gmx.de
klaus dr.,dr.klaus.blass@me.com
manfred schmidt,dr.manfred.schmidt@gmx.de
roswitha spallek,dr.med.spallek@t-online.de
gebrehiwot noh,dr.noo96@yahoo.com
meixner peter,dr.p.mx@web.de
dr. bernd,dr.schelhorn@web.de
sizeri samet,dr.soezeri@gmx.de
harald weber,dr.weber@web.de
cs hans,dr.wetter@freenet.de
yukari cross,drachi666666@hotmail.de
tobias groimann,dracoon18@freenet.de
mitrovic dragan,draganmitrovic@gmx.info
dieter schaal,dragica.sch@gmx.de
ball wolfgang,dragon001@web.de
fiebig alex,dragonaf@hotmail.de
schmidt alexander,dralexander@gmx.de
arnhofer hermann,drarnhofer@aol.com
drazen muza,drazenmuza@online.de
andrea keibe,drekana@web.de
dressel thomas,dressel72@gmx.de
ulf zangmeister,drewzu@web.de
wolfgang dreyer,dreyer.de@gmail.com
kollenz thomas,drflatbob@gmail.com
graessner dietrich,drgrass@aol.com
ursula karstaedt,drkarstaedt@hotmail.de
kovacs martha,drkovacsmartha@gmail.com
dr.lorenz michael,drlo@gmx.de
michael keller,drmkeller@arcor.de
drozdzowicz michael,drosdo@web.de
pfluger thomas,drpfluger@gmail.com
christian peters,drpille@hotmail.de
sven brickner,drsamson@clever.ms
dr.schubert claus-jirgen,drschubert@online.de
seither ginter,drseither@gmx.de
neumeier michael,druckdriever@aol.com
tiedemann uwe,drunken-sailor@web.de
werner dr.,drwch9@aol.de
schuck dieter,ds-allstars@go4more.de
spaeth dieter,ds-marketing52@gmx.net
kussatz sven,ds.service@gmx.de
daniel sinanovic,ds47018@gmail.com
symmank dieter,dsausla@web.de
schepanek dirk,dschepan@yahoo.com
dieter eisen,dse-consulting@t-online.de
wagner waldemar,dshark89@gmx.de
rebecca seibel,dskate_1@web.de
sodja darko,dsodja@web.de
alex ribeiro,dsousa81@web.de
schuler doris,dsps111@web.de
stahl daniel,dstahl82@web.de
steffen detlef,dsteffen@live.de
dieter stirke,dstrke@gmail.com
daniel theirich,dtheirich@t-online.de
dieter bald,dtrbald@aol.com
daniel simoes,dtsimoes@arcor.de
rb miguel duarte,duarte.e@hotmail.fr
andreas poljakow,duchasp93@googlemail.com
dubravka kurz,dudel@go4more.de
dick paul,dueckftbm@gmx.de
diring martin,dueringmartin@gmx.de
rb niklaus drst,duerstniklaus@gmail.com
durbaca robert razvan,durbacar@gmail.com
durschang anna,durschang.anna@gmail.com
matthies dustin,dustinmatthies@yahoo.de
alexander zell,dute85@gmail.com
von daniel,dvaswegen@gmail.com
domenico vinci,dvinci10@googlemail.com
weber dirk,dweber0812@aol.com
dylan meek,dylan.meek@web.de
zerbe dirk,dz010362@gmail.com
hiusler georg,dziemballa@gmx.de
dzillak jirn,dzillak@web.de
zimmer daniel,dzimmer11@t-online.de
hans-jirgen dziubas,dziubas@online.de
burghardt eduard,e_burg@gmx.de
fritz edgar,e_fritz@web.de
roth joerg-dieter,e-banking@ecotopix.net
peters axel,e-direkt@gmx.de
eduard frank,e-frank438@online.de
kinn ernst-michael,e-mk76@gmx.de
bekeschus ehrhardt,e.bekeschus@unitybox.de
rb eduard bitschnau,e.bitschnau@bluewin.ch
eduard doronin,e.doronin@gmx.de
geier erich,e.geier@treops.de
elina hellmehl,e.hellmehl@googlemail.com
ernst hinterseer,e.hinterseer@gmail.com
elke schmitt,e.khs@online.de
lindner elke,e.lindner@netcologne.de
lorant engelbert,e.lorant@web.de
meszaros eliska,e.meszaros@gmx.de
meyer eberhard,e.meyer.schwalbach@hotmail.de
eugen naj,e.naj@mail.de
elisabeth polojachtof,e.polojachtof@gmx.de
ritteken ernst,e.roe@go4more.de
rome edmund,e.rome@gmx.de
enrico schifer,e.s.bremen@web.de
spirat elisabeth,e.spirat@web.de
edelgard struck,e.struck@gmx.net
usbeck eberhard,e.usbeck@gmail.com
eugen wall,e.wall.etzbach@web.de
waszak elzbieta,e.waszak@gmx.de
primak evgenia,e@primak.de
klein hubert,e60157@aol.com
ezekiel koranteng,eakoranteng@aol.com
erdenbrecher peggy,eanja1971@aol.com
haeckel christian,earl31515@gmail.com
ruckhaberle kai,earth-host@gmx.de
eric simon,easimonfinanz@yahoo.de
torluccio samuele,easyman77@arcor.de
edeltraut bergmann,eb-service@arcor.de
bauche elke,eb.agentur22@aol.de
fuchs alexander,ebayfuchsi@yahoo.de
uwe kreutzer,ebc4you@web.de
kmoch rudolf,ebe_paneurop@gmx.com
hegedis0747 hans-dieter,ebede@gmx.de
nancy ebel,ebelmelody@yahoo.de
nancy ebel,ebelnancy90@yahoo.de
eitzenberger karl-heinz,eberger@gmx.net
kopf eberhard,eberhard.kopf@live.de
ebert ralf,ebert@ewmz.de
uwe schirrmeister,ebookost@gmx.de
schirrmeister uwe,ebookwest@gmx.de
briculschi eugeniu,ebrikulski@rambler.ru
eberhard nicolaus,ebs.nicol@yahoo.de
erika boerjesson,ebscko@googlemail.com
tielscher eckhard,ec.tielscher@gmx.de
hofminner cornelia,echannel.oi@googlemail.com
werner rose,eckard5@web.de
martina eckel,eckel.martina@gmail.com
daniel eckert,eckert-partner@hotmail.de
pischl eckhard,eckhard-poeschl@t-online.de
brinkmann eckhard,eckhard@pc-brinkmann.de
danger eckhard,eckharddanger@web.de
schoi eckhard,eckhardschoss@web.de
nui eckard,ecki-one@web.de
eckert uwe,eckrtuw@aol.com
peter neumann,eco-marketing@web.de
lothar dibowski,ecoltd@web.de
harald bergmann,ecom-hb24@freenet.de
richards edwin,ed_rich54@yahoo.de
werner edwin,ed.online.msn@hotmail.de
lau ingeborg,edanakey@gmail.com
eduard brockhoff,edbrock.mail@gmx.net
seibt edda,edda57@gmx.de
barwich eduard,eddi.85@gmx.de
eduard franke,eddifrank@web.de
eddy exposito,eddy_casal@hotmail.de
edgar willms,eddy.willms@ish.de
koch eduard,eddykoch@web.de
edgar dunst,eddytrading4xp@gmail.com
schroeder erwin,edehmel.1943@freenet.de
schroeder erwin,edehmel.schroeder@googlemail.com
volkmar edel,edel281264@aol.com
scheuermann bernd,edelbrand@gmx.de
recker edelgard,edelgard_38@yahoo.de
elke martinez,edelmartez@gmail.com
brunner-simmert edeltraud,edeltraud@gmx.eu
arneth edeltraut,edeltraut.arneth@gmx.de
eder johann,eder_johann@freenet.de
eder emil,eder.emil@web.de
edgar willms,edgar-willms@gmx.de
jergus edgar,edgar.jergus@web.de
lay edgar,edgar.lay@gmx.de
edgar bartz,edgarbartz@gmx.de
edgar eiberger,edgareiberger@gmx.de
runge edgar,edgarrunge@hotmail.de
runge edgar,edgarrunge@outlook.com
van edgar,edgarvandegiessen@t-online.de
rosenberger edith,edi.rosen2012@googlemail.com
rb eduard kicul,edikicul1969@gmail.com
koop edik,edikkoop@gmail.com
rb edith lerjen,edith.lerjen@hotmail.com
mitschev edmond,edmondmitschev@aol.com
ed rome,edmundrome@gmx.net
douirani elhoussaine,edouirani@yahoo.de
thomas miller,eduard_eldorado@yahoo.com.ar
faltenberg eduard,eduard.f@gmx.de
isterreicher eduard,eduard.oesterreicher@googlemail.com
getze eduard,eduardgetze@hotmail.de
eduard mauer,eduardmauer@yahoo.de_del
schoeck eduard,eduardschoeck@aol.com
edward braun,edward.braun17@yahoo.de
weber eduard,edweber@web.de
korb edwin,edwin.korb@kabelmail.de
toma edwin,edwintoma@web.de
eduard zeller,edxzeller@yahoo.de
ensinger rainer,ee-sales@web.de
reiser ernst,eer@gmx.de
erhard otto,efbjo-1821@web.de
wulff ingo,efdoo@live.de
frank effenberger,effenbe@yahoo.de
peter effern,effernpeter@aol.com
rietz sebastian,efix6@yahoo.de
kuhne egbert,egbert.kuhne@web.de
poltermann egbert,egbert.poltermann@nexgo.de
geercken erika,egee@onlinehome.de
geyer eberhard,egeyer117wil@online.de
eggers benjamin,eggers-clz@web.de
michael eginger,eginger@gmx.net
egon bern,egonbern@web.de
egon rez,egonrez@freenet.de
rb egon rmer rmer,egonroemer@gmx.ch
girtemaker ilka,egowa@gmx.de
herrmann elke,eh.wealth@web.de
hauser evamaria,eh5196@aol.com
ihab maksoud,ehabmaksod@yahoo.de
egon harm,eharm.egon@googlemail.com
egzon haxhijaj,ehaxhija@gmx.de
herrmann elke,eherrman@web.de
ehlert manuel,ehlertmanu@web.de
ehmann frank,ehmann@amenico.de
ehmer nils,ehmer.nils@web.de
ehrhardt martin,ehrhardtm@gmx.de
jirg ehrlinspiel,ehrlinspiel@gmx.de
huber ewald,ehu@ewaldhuber.de
ernst huckfeldt,ehuck@t-online.de
eichler peter,eichler2@gmx.de
horst lehmann,eicogerm@email.de
georg nennstiel,eifeltor@email.de
eike weidig,eike-weidig@gmx.de
homan eik,eike.homann@gmx.de
wentzel eike,eike62@gmx.de
eiiler martin,eima@gmx.net
seidel antje,einhornleo@aol.com
einenkel jirg,einj@gmx.de
eike peter ,eipe1409@gmx.de
christian eisenburger,eisenburger@email.de
bjirn deckert,eisib@gmx.de
gertraud eisner,eisnerge@mnet-mail.de
winter olaf,eispickel@arcor.de
egon nosper,ejnosper@arcor.de
korkmaz erdal,ek-o@gmx.de
eckhard kappelmann,ekappelmann@web.de
schwirtz ekkehard,ekke2312@email.de
koppelkamm elisabeth,eko7@gmx.de
enrico winzerling,el_grande_niklas@web.de
birkmann elke,el-77-ke@gmx.de
david franken,el-81@gmx.de
khalid el,el-hammoumi@live.de
less eugen,el.77@gmx.de
michaela hoese,ela_hoese@gmx.de
rb kader guelsen guelsen,ela62@outlook.com
elkadirra vellinzi,elbasan2016@gmail.com
elek teiser,elekteiser@gmail.com
hauke nass,elektro-nass@web.de
elena schrainer,elena_schrainer@hotmail.de
dik elena,elena.dik@web.de
mai matthias,elendekampfsau@googlemail.com
emanuel seceta,elfienee_elf@hotmail.de
schiffler elfriede,elfriede.schaeffler@t-online.de
vitzthum elfriede,elfriedeanna@web.de
elfriede vitzthum,elfriedevitzthum@googlemail.com
winkler eliah,eliahwinkler@yahoo.de
veeran sathes,eliasathesh@gmail.com
sdaas saddasdas,elijahschinz1@hotmail.com
kolbe christian,elikolbe@gmx.net
felix witte,elinchia@web.de
walch elisabeth,elisabeth1119@gmx.de
elisabeth domke,elisabethdomke@gmx.de
graf elisabeth,elisabethgraf09@gmail.com
elisabetta busco,elisabettabusco@yahoo.it
lutz buenning,elite.philip.ger@gmail.com
krauss elizabeth,eliz64k@gmx.de
barhoumi-suhr elke,elke_suhr@hotmail.com
theiner elke,elke.theiner@gmx.de
elke becker,elke6342@yahoo.de
elke fulfs,elkefulfs@freenet.de
tessmann elke,elketessmann@gmx.net
biberger valentin,ellav2@aol.de
stefan elschner,elle33@web.de
ellinger elisabeth,elleellinger@aol.com
simmler ellen,ellen.simmler@yahoo.de
feldtner ellen,ellenfeldtner@aol.com
leuftink ellen,ellenleuftink@gmx.de
jens ellerhorst,ellerhorst@arcor.de
helm elly,ellyhelm@googlemail.com
schultes markus,elm06@web.de
giera elmar,elmar.giera@gmx.de
elmar behrendt,elmarbehrendt@online.de
degenkolbe danilo,elo76@gmx.de
de luca giuseppe,elreygiuseppe@hotmail.de
codrington elroy,elroycodrington@hotmail.com
lange elsa,elsalange@gmx.de
elser steffen,elser1503@web.de
thier sigrid,eltac2000@web.de
zerle elvira,elvira.zerle@web.de
deyiing elvira,elviradeyssing@freenet.de
kamm thomas,elvis12@t-online.de
jovanovic sasa,elvise.jovanovic@gmail.com
reucher michael,elvismr@hotmail.de
hiuiler oswin,elwehusky@web.de
izevbokun nomase,email2norman@yahoo.com
emanuel kraft,emanuelkraft@aol.com
wilfert mark,emarketingag@gmail.com
grochulski grzegorz,emeryt@poczta.onet.pl
emanuel jerg,emi40000@gmail.com
schmidt hartmut,emil-baumgarten@web.de
olusola mattew,emiplic_international@yahoo.de
emir mandeganja,emiradriano@gmail.com
ilkay yildi,emirdagli-ilkay@web.de
maria emmerig-nadler,emmerig_nadler@yahoo.de
tornow andreas,emmes1966@web.de
schmidt andreas,emmis@online.de
varga emmerich,emmivarga@aol.com
nils niebes,empfaenger04@yahoo.de
seufert matthias,ems@seufert-ems.de
adrian falszowski,emse88@arcor.de
thomann maria,emthom@arcor.de
yigit ender,ender24@web.de
alexander endres,endres.alexander@gmail.com
andrea endres,endresglobal@yahoo.de
endy harder,endyharder.info@gmail.com
anna liza,energiepotentiale@gmx.net
y christian,energiesparsau@clever.ms
trader super,energietanke@t-online.de
lange christian,energy30@gmx.de
rauschenbach cornelia,engel_aus_eis@gmx.de
engel rolf,engel162@freenet.de
roland ingo,engelswahrnehmung@engeldolmetscher.de
engler silke,engler.silke@googlemail.com
englmaier irmgard,englmaier-aloe@gmx.de
rb enik-dita halsz,enikodita@gmail.com
wirth thomas,enjoy123@gmx.de
wolf enrico,enkalito@gmx.de
jcks enrico,enno.joecks@gmail.com
weise enno,ennoweise@yahoo.de
enrico suess,enrico-suess@web.de
enrico estel,enrico.estel@gmx.de
wolff enrico,enrico.wolff@gmx.de
zimmer enrico,enricozimmer@gmx.de
j. hans,ental@t-online.de
miller markus,enzian97@yahoo.de
hither werner,ep-leck@t-online.de
pfab eberhard,epfabrie@arcor.de
pfab eberhard,epfabrie@live.de
patrick simmet,epoxy0588@freenet.de
peter ernst,eptmarketing@aol.com
eugen keller,er-600@gmx.de
erwin stolz,er.sto@gmx.de
eduard ralf,erapro@gmx.de
erich bick,erbo2954@online.de
ercan murat,ercamura@gmx.de
dalmis ercan,ercan.dalmis@gmx.de
ercan alkis,ercanalkis@web.de
koca erdal,erdalkoca@arcor.de
streich andre,erdbau@hotmail.de
erdmann georg,erdmann.georg@web.de
erdmann nickel,erdmann.nickel@t-online.de
erdisy mario,erdoesy@gmx.net
buchanan erec,erec-buchanan@msn.com
renner eugen,erenner1@gmx.de
widemann sascha,erfolg@personaltraining-willensstark.com
pollak jens,erfolgskonzept24@email.de
ralph berger,erfolgsofort@googlemail.com
erfried manka,erfried.manka@gmx.de
artur kimmerle,ergoprokimmerle@gmail.com
eric schultz,eric.nauen@web.de
erik zodrow,eric.zodrow@gmail.com
erich gnade,erich-gnade@gmx.de
baier erich,erich.baier@onlinehome.de
miller erich,erich.mueller55@web.de
erich riese,erich.riese@primacom.net
runge marianne,erich.runge@gmx.de
striegl erich,erichx61@gmx.de
bernardin eric,ericonomo@gmx.de
eric zeus,ericzeus82@gmail.com
rust erik,erik.rust@web.de
schellhorn erik,erik.schellhorn@t-online.de
erik stulberg,erik.srulberg@gmail.com
kissner theresia-erika,erika.kissner@hotmail.de
erika riiling,erikarissling@gmail.com
kuiper hendrik,erikkuiper1964@hotmail.com
erik soboll,eriksoboll@superpartys.de
erik starke,erikstarke@gmx.net
erik starke,erikstarke1989@web.de
ner erkan,erkan2070@hotmail.com
erkan stefano,erkanaslan1512@web.de
erkan sancar,erkansancar74@hotmail.com
erlacher josef,erlacher1@hotmail.de
joao carlos,ermacus@gmail.com
ermir gurakuqi,ermir-gurakuqi@hotmail.com
ernesto reguera,ern.gonzalez@yahoo.de
fonguxe9 ernest,ernest@hispeed.ch
ernesto reguera,erneston@me.com
ehrler alexander,ernie77@gmx.net
ernoe schmidt,ernoe_schmidt@yahoo.de
ernst bernhard,ernst_bernhard@t-online.de
brandt ernst,ernst.brandt@freenet.de
mieslinger ernst,ernst.mieslinger@gmx.de
ernst herz,ernst@h-e-r-z.de
andreas ernst,ernstandreas@web.de
darius ernst,ernstda@dec-com.de
krause ernst,ernstkrause@yahoo.de
wald ernst,ernstwald@gmx.de
roessler danny,error_404@ist-einmalig.de
thomas justin,erthj@web.de
orgas erwin,erwin_o@live.de
erwin langer,erwin-langer@gmx.de
erwin wirl,erwin-wuerl@arcor.de
erwin lust,erwin.l88@googlemail.com
erwin meierle,erwin.meierle@online.de
seidl erwin,erwin.seidl@web.de
wolf erwin,erwin.wolf@gmx.de
hintermayr dieter,erwin@hintermayr.de
ameseder erwin,erwin48@gmx.net
huvart erwin,erwinhuv@gmail.com
rb robert matota,erzsorobi@gmail.com
sagstetter elfriede,es-hs@gmx.de
socher eugen,es@myinfomax.de
dieter esau,esau-studio@gmx.de
gnther sven,esben@gmx.net
eleonore schmidt,esch0815@googlemail.com
esch doris,eschdo@gmx.de
schmidt elke,eschmidt@schmedi2000.de
rafael golenia,escomde@arcor.de
andreas busch,escorial@gmx.com
ewald siebelts,esiebelts@googlemail.com
akin ilker,eskisehirli23@hotmail.de
treskunov sergej,esm@gmx.net
espig mirko,espig.m@web.de
esse kouassi,essebruno71@yahoo.fr
imer essiz,essiz@hotmail.de
ulrich sergej,esso-ulrich@arcor.de
guittard estelle,estelle_guittard@hotmail.de
erwin steller,esteller@t-online.de
mann esther,esthermann@web.de
stratmann elke,estratmann@hotmail.de
strothmann-huxohl annette,estrothi@freenet.de
sudbrack eckhard,esudbrack@web.de
jirg eichhorn,et-bau@online.de
elisabeth tissen,etissen62@gmail.com
bussler etlev,etlevbussler@web.de
taner eren,etustex@hotmail.com
eugen lehmann,eu_lehmann@t-online.de
eugen kopotilow,eugen_kop@yahoo.de
eugen zimmermann,eugen_zimmermann@web.de
smetanin eugen,eugen-23@gmx.de
eugen tluck,eugen-tluck@t-online.de
davydok eugen,eugen.1984@gmx.de
rehband eugen,eugen.rehband@web.de
eugen schneider,eugen664@aol.com
eugen faber,eugenf81@gmail.com
feller eugen,eugenfeller7@aol.com
eugen lenz,eugenlenz@hotmail.de
mumber eugen,eugenmumber@web.de
pfaff eugen,eugenpfaff@gmx.de
eugen ens,eugens22@gmail.com
w. joachim,euibc@gmx.de
thom hubert,euler-thom@arcor.de
kai kenklies,eumel8.5@web.de
opatz rolf,eunetland@email.de
zwengauer esther,eunike1981@gmx.de
witt klaus,euroback@arcor.de
david werner,eurodave@web.de
steffen petrus,eurofuchs@arcor.de
sgroia massimo,euroinvest@gmx.de
mustain khan,eurokaline@yahoo.com
auerswald rolf,eurolly@gmail.com
olligschliger werner,euronet24@gmx.com
puttkammer gnter,europeflyer1@gmx.de
wildo angelika,europtech52@googlemail.com
kurt waldemar,euroshops13@gmail.com
karl-heinz luckner,eurouhu@gmx.de
gruber eva,eva_gruber@web.de
eva domaschke,eva.domaschke@googlemail.com
eva sagrodnik,eva.sagrodnik@web.de
eva treutlein,eva.treutlein@web.de
keune eva-maria,evakeune@gmx.net
lemcke carmen,evamariabutt@web.de
evan koch,evan.koch93@gmail.com
schubert evelin,evelin@gmx.org
gabriele fechter,evelinfechter@yahoo.de
redzepovski evelyne,evelyneredzepovski@bluewin.ch
evers volker,evers.volker@gmx.de
alexander borovik,evgeniahh@web.de
evgenii manolov,evgenii.manolov@abv.bg
evgenij tumanez,evgenij1983@web.de
evgenij petrov,evgenijpetrov@web.de
zabel evelyn,evizabel@web.de
lehmann steffen,evolution1973@gmx.de
roder ev-dolores,evroder@kabelmail.de
edgar wahl,ewahl64@gmail.com
ewald bergen,ewald-bergen@t-online.de
aichele ewald,ewald.aichele@web.de
werthmann ewald,ewald.werthmann@web.de
mosig kerstin,ewert44@web.de
ernst petersson,ewg-petersson@web.de
hary haase,ews-nobody@hotmail.de
example brown,example@google.com
stadler thomas,excalibur46@me.com
adalbert schrider,exclusiv.as@t-online.de
christian thanner,expert012@web.de
thanner christian,expert05@web.de
denis drewke,extremespontan@gmail.com
lahaer grass,eyupx16@yahoo.de
gischick frank-olaf,f_goeschick@arcor.de
faiza jerbi,f_jerbi@yahoo.de
bertschmann franz,f-bertschmann@web.de
daum frank,f-daum@gmx.de
meyer frank,f-m-meyer@t-online.de
frank neubert,f-neubert@gmx.de
scirtuicchio fabio,f-z@web.de
schlenkrich wolfgang,f.-k.-s@web.de
frank bensberg,f.bensberg@web.de
beyer frank,f.beyer@hotmail.de
friedrich birmann,f.boermann@freenet.de
frank breitner,f.breitner@gmx.de
florian gietl,f.gietl@yahoo.de
fabian harteker,f.harteker@gmx.de
hilsberg frank,f.hilsberg@gmx.de
hlz franz josef,f.j.hoelz@web.de
kiraly ferenc,f.king22@gmail.com
florian klar,f.klar@live.de
notarbartolo filippo,f.notarbartolo@gmail.com
rehbaum frank,f.rehbaum@googlemail.com
frank reintsema,f.reintsema@gmail.com
rohr frank,f.rohr@gmx.de
frank rohr,f.rohr@gmx.net
francisco san,f.sanjuan@gmx.de
frederick schattka,f.schattka@web.de
schinefeld fritz,f.schoenef@gmail.com
sigrist friedemann,f.sigrist@gmx.net
stabler frank,f.stabler@gmx.de
temime faysal,f.temime@gmx.de
franz vogel,f.vogel@gmail.com
franz josef,f130567@freenet.de
fabian klee,fa-klee@t-online.de
caliskan fatih,fa.caliskan@gmx.at
koch michael,fa.mk@gmx.net
bartenbach przemyslaw,fa.renovo@yahoo.de
frank sauerbeck,fa.sa07@web.de
david meimann,fab-meier@web.de
fabel ekkehard,fabel.ekkehard@gmail.com
faber burkhard,faberberlin@googlemail.com
lobach taisa,faberlic-de@gmx.de
edelmann fabian,fabi.edelmann@googlemail.com
fabian neumann,fabi210589@googlemail.com
fabian kurb,fabian_kurb@msn.com
klussmann fabian,fabian.klussmann@outlook.de
schmolt fabian,fabian.schmolt@googlemail.com
fabian gericke,fabiange1996@web.de
fabian jirgen,fabiangmbh@googlemail.com
fabian reith,fabianreith@gmx.net
fabian wrede,fabianwrede1987@googlemail.com
fabig andreas,fabig@freenet.de
fabio thiele,fabio-thiele@hotmail.de
nentwich marcus,fabiodealma@gmx.de
fortugno fabio,fabiofortugno@hotmail.de
spinuzza fabrizio,fabrispinuzza@gmail.com
fabrizio anile,fabrizioanile0@gmail.com
heiner fxe4rber,fabuimmo@onlinehome.de
andreas meier,facebooke1991@web.de
pogorzelski   karl ,facongdbr@aol.com
tedouri fadi,fadi.theo@gmail.com
chris l.,fah803@web.de
fahad amjad,fahadper2@gmail.com
mayer peter,fairdrive@hotmail.de
fakrou josef,fakrou@gmx.de
falco zepke,falco.zepke@web.de
exner falk,falk-exner@online.de
falk jakob,falk-jakob@gmx.de
neubert falk,falk-neubert@gmx.de
kristof suppan,falkenstein51@gmx.de
dr. prof.,falkner.bearbeitung@yahoo.de
luksch falko,falko.luksch@unitybox.de
fallert harry,fallert57@gmail.com
klaus brugger,fam.4brugger@gmail.com
hentschker thomas,fam.hentschker@gmx.de
molter stefan,fam.molter@gmx.de
siegmund michael,fam.siegmund@email.de
axel freidinger,familie-freidinger@live.de
borbely-kenderesi andrea,familieborbely@yahoo.de
markus nensel,familyhelper@live.de
liebert roberto,famschwenkeliebert@googlemail.com
straub nicole,famstraub@hotmail.de
andermann frank,fandermann@me.com
hinsel fanny,fanny_haensel@online.de
rokyta martina,fantaghiro_34@msn.com
schiler jirg,fantasia70@arcor.de
sascha bihm,fantasticsash@yahoo.de
li faraci,faracicaterina5@gmail.com
faycal farahi,farahi_faycal@hotmail.de
luis manuel,farialuis@web.de
hoseit klaus,farscape-zero@freenet.de
faruk bodur,faruk51@hotmail.de
holger fischer,fashionhf@googlemail.com
bredenkamp niels,fastcashdailycash@gmail.com
tastekin hasan,fatastekin@t-online.de
fate fejzaj,fate1981@gmail.com
rb fatih turk,fatihhturk@gmail.com
fatih parlak,fatihsultan77@hotmail.de
rb fatih turk,fatihturk@live.com
ginther stephan,fauerko@yahoo.de
favourite74 coleman,favourite74@abv.bg
imran fazekas,fazekas.imran@t-online.de
bier franz,fbm.bier@gmail.com
karl-heinz kampen,fcb-kalle@web.de
zahradnyik franz,fcmz_3011@web.de
cristina merk,fcommissions@yahoo.de
schmidt daniel,fcs1486@gmx.de
frank dalkolmo,fdalkolmo@t-online.de
michael kuchs,fdl.mkuchs@online.de
felix ditsche,fdm13@gmx.de
freyberg fdv,fdvfreyberg@t-online.de
pedevilla cristina,fedo97@web.de
fedor k.h.,fedor-kraemer-solar@unitybox.de
johannesfehr@web.de fehr,fehrjohannes@web.de
feiler charlotte,feiler.ch@web.de
detlef paschke,feldet24@gmail.com
jaudie budio,felix_jan@gmx.de
wnendt felix,felix-wnendt@hotmail.com
felix bricker,felix.broecker@gmx.de
ferlemann felix,felix.ferlemann@gmail.com
garcia felix,felix.garcia@web.de
felix graf,felix.graf1@live.de
guenthner felix,felix@wg-kommunikation.de
felix zinsmeyer,felix@zinsmeyer.de
ellrich felix,felixellrich1988@yahoo.de
maja schmidt,felixemil@gmx.net
felix fedder,felixfedder@web.de
feller jirgen,fellerj@t-online.de
feifel wilfried,fema@miele-feifel.de
graalmann bernd,fenja.65@web.de
christian fenzl,fenzo@gmx.net
ferchland sven,ferchy@web.de
scheller ferdinand,ferdi@scheller-net.de
schmel ferenc,ferencschmel@gmail.com
sari feridun,feridunsari@hotmail.de
peter brendel,ferrodo@gmx.de
felix steidle-sailer,feschwager@aol.com
joachim seidler,fest.marketing@gmail.com
ilona julianna,festoceg@gmail.com
aydin feyzi,feyzi.aydin@freenet.de
ferdinando frijio,ffrijio@gmail.com
dasdasd aasdasd,ffsfsf@gmail.com
paukerl alfred,fgpaukerl@gmx.de
grebner frank,fgreby@gmx.de
frank hoffmann,fh1000@gmx.de
halbgewachs fritz,fhalbgewachs@gmx.de
frederic heindel,fheindel@googlemail.com
frank hirschmiller,fhirsch1@hotmail.com
stefan bucher,fidel988@web.de
fiedler werner,fiedler-lk@online.de
fiedler elfriede,fiedler.eva@gmx.net
angelika fiedler,fiedler.lichte@freenet.de
johann fiegler,fiegler@interia.eu
schilli peter,fiete080@online.de
samim faiz,fifahack100@gmail.com
enrico viehweg,fifaonlineliga@gmx.de
andreas bork,figaro05@gmx.de
fikret erol,fikret.erol@yahoo.de
filipe dicaprio,filipepaulino91@gmx.de
majer filip,filipmajer@gmx.de
filip forner,filipmcmine@googlemail.com
gerhard filohn,filohn@hotmail.com
filthaut markus,filthaut-gartenbau@web.de
marcel damerau,filzipilzi@googlemail.com
tuch oliver,finanz.investor@gmail.com
tangelder reinhard,finanz@tangelder.de
alexander ball,finanzberatungball@gmx.de
josef haas,finanzdienstleistung_josefhaas@yahoo.de
andreas veith,finanzexperte1@gmail.com
genrich aleksej,finanzology@hotmail.de
held rainer,finatureiche@web.de
finck torsten,finck.schwerin@freenet.de
ulrich bernd,fineline.ulrich@web.de
franz fink,finkfranz@aol.com
benjamin schote,finley-quinn@gmx.de
steinmetz dennis,finsh2111@yahoo.de
fischer peter,fipe@web.de
kihler markus,fippse@gmx.net
kluge frank,fippskluge@gmail.com
roman schweigert,fire@gmx.com
klaus dierkes,firebirdkd93@aol.com
uwe ginther,firedrachen@googlemail.com
patricia horn,firedragon82@web.de
marco pascal,firefighter04@gmx.net
claus funkenweh,firma-cfn@web.de
miller erich,firmen.produkt@web.de
rido rausch,firstruvido@yahoo.de
fischer egon,fischer-kgs.w@t-online.de
jutta fischer,fischer-reken@t-online.de
detlef fischer,fischer.detlef@gmx.de
fischer andi,fischersbilderwelt@gmx.de
guenter fisch,fischguen@aol.com
david grau,fitten@gmx.de
jens fittinghoff,fitti_pua@web.de
frank johannes,fj1@vr-web.de
franz bauer,fjbauer@web.de
fedor lohmann,fjodorlo@gmx.de
walm torsten,fjord@arcor.de
seitz franz,fjseitz51@gmail.com
katona frank,fkkatona@gmx.de
paul friedrich,fkreische@hotmail.de
koehler-schubert freya,fksobwa@gmail.com
#NAME,fl.schulz@yahoo.de
ronny hiebner,flammentor@googlemail.com
frank alexander,flash_alex@hotmail.de
claudia bruns,flashimaus@aol.com
lagaly frank,flbiz65@gmail.com
fleck silvia,fleck.silvia@googlemail.com
renger helmut,flegel@easy-gaming.de
stefanie flehr,flehr-quickborn@gmx.de
fabian leitmannstetter,fleitmannstetter@web.de
flemming udo,flemming-udo@web.de
bamberger michael,flens77@googlemail.com
mario heinrich,flexibel3@aol.com
anthony etukudoh,flexwithtony@yahoo.com
klitsch dieter,fliba12340@aol.com
berger alexander,fliesen-berger-ab@web.de
krause andreas,fliesen.krause@gmx.de
denis kuehling,flipstarone@t-online.de
frank may,flitzerblitzer3@freenet.de
florian otto,flo_otto@web.de
florian kurland,flo-augsburg-kurland@hotmail.de
florian wei,flo-petershausen@web.de
gauert florian-patrick,flo.gauert@googlemail.com
rettky florian,flo92@gmx.de
florian bauer,floheidenreich@hotmail.de
gratzl florian,floinkognito@gmx.de
florian mohr,flomoh@aol.com
zfle florian,flori.zuefle@web.de
brck florian,florian_brueck@web.de
florian buck,florian_buck_1988@web.de
florian bittner,florian-bittner@web.de
schwanke florian,florian-schwanke@web.de
dmichen florian,florian-volkmar@web.de
florian ehrenberg,florian.ehrenberg@gmx.de
hartmann florian,florian.hartmann@email.de
florian heindl,florian.heindl@web.de
hofmann florian,florian.hofmann@gmail.com
florian huth,florian.huth84@gmx.de
petry florian,florian.petry@gmx.de
reim florian,florian.reim@hotmail.de
florian sabienski,florian.sb@gmx.de
sabienski florian,florian.sbi@gmail.com
florian strahl,florian.strahl@gmx.net
florian weber,florian.weber1@gmx.net
florian lepinat,florianlepinat@gmail.com
mazor florian,florianmazor@gmail.com
florian meinel,florianmeinel@gmx.de
florian miller,florianmue83@gmx.de
pfisterer florian,florianpfisterer@gmx.de
florian schwarz,florianschwarz628@gmail.com
niederberger siegbert,florida57@gmx.de
thiede florian,florioptik@msn.com
marian-florian rudzok,florudzok@hotmail.com
jurk wolfgang,flow70386@gmail.com
ste flo,flowe29@yahoo.de
carola kreitmaier,fluffi21@hotmail.com
martens fred,fm.message@hotmail.de
messing franz,fmessing@aol.com
laur peter,fmw64@gmx.de
farzin nahavandy,fnahavandy@web.de
franco nicastro,fnicas@web.de
felix nuibaum,fnuss@gmx.net
marquardt falk-oliver,fockmann@web.de
dr. h.,foerdermittelberatung.bayern@gmail.com
norbert mrowka,fohlen.echo19651@web.de
mersmann frank,fons@freenet.de
ronny kaufmann,fonz007@gmx.de
pirner petra,ford30@web.de
arno georg,fordprobe@gmx.net
wagner jirg,fore@gmx.de
kimmich stephan,forex.sk@gmx.de
ruediger kaltenbach,forex@cr-kaltenbach.de
miguel taborda,forex@migueltaborda.de
hiller wolfgang,forex@mrhiller.com
frank stolzenberger,forex@stolzenberger-online.de
artjom schumacher,forex@worldofcompanies.com
roy barre,forex4all@web.de
elchlepp b.,forex66@t-online.de
auerwald karina,forexauka@gmail.com
maurer marcel,forget@online.de
fouad elaisati,fouad.elaisati@hotmail.de
jirgen ernhardt,foxx.team.roxx@gmail.com
misiano francesco,fr-misiano@t-online.de
schneider friedrich,fr.schneider@gawnet.ch
griger franz,fragr@gmx.net
holl franz,fraho2011@online.de
fraindorfner johann,fraindorfner@aol.com
barth franziska,franca.b@bluewin.ch
paddeu francesco,francesco_paddeu@yahoo.de
bianco cosimo,francescobianco97@yahoo.de
francesco fode,francescofode@googlemail.com
niestroj francis,francinq@gmx.de
ababio francis,francis-ababio@gmx.de
franco eugenio,franco.eugenio@bluewin.ch
marincic franjo,franjo.marincic@yahoo.com
sabine frank,frank_sabine@gmx.net
frank eschen,frank-eschen@hotmail.com
schumacher frank,frank-meiningen@web.de
frank wiedenroth,frank-wiedenroth@ats-serviceteam.de
averbeck frank,frank.averbeck@web.de
bednarz frank,frank.bednarz@web.de
frank durlach,frank.durlach@web.de
broda frank,frank.essen@freenet.de
frank jansch,frank.jansch@web.de
frank knauer,frank.knauer@hotelsys.de
frank linnemann,frank.linnemann@outlook.com
frank maegel,frank.maegel@arcor.de
pfau frank,frank.pfau@gmx.de
rothe frank,frank.rothe.01@gmail.com
frank rotner,frank.rotner@googlemail.com
wodtcke frank,frank.wodtcke@email.de
frank laier,frank153@hotmail.de
frank kellberg,frank5093@web.de
frank baldeweg,frank54@hotmail.de
rb frank bottoni,frankbottoni@hotmail.com
deschner frank,frankdeschner@gmx.de
hartmann dieter,frankdihardy@yahoo.com
frank dutschke,frankdutschke@gmail.com
ulrich rausch,franke_36@freenet.de
rausch ulrich,franke_43@web.de
rainer franke,franke.rainer@bluewin.ch
kemper frank,franke76@gmx.de
jirgen schneider,frankenking1@googlemail.com
winkler wolfgang,frankenwowi@aol.com
frank felden,frankfelden@yahoo.de
frache frank,frankfrache@gmx.de
asamoah frank,frankie_y@hotmail.de
frank kleber,frankkleber@gmx.de
koch frank,frankkoch@online.de
frank kirner,frankkoerner_herzberg@web.de
kritzig frank,frankkraetzig@gmx.de
frank migel,frankmaegel@arcor.de
hensel frank-michael,frankmichaelhensel@yahoo.de
mirco frank,frankmirco@web.de
miller frank,frankml260@aol.com
perniss frank,frankperniss@gmail.com
pichowsky frank,frankpichowsky@web.de
rudolf frank,frankrudolf@gmx.net
schulze frank,franks281@web.de
schlieker frank,frankschlieker@googlemail.com
frank schnorr,frankschnorr@gmail.com
uta frank,franksinfo@gmx.de
wimmer frank,frankwimmer1@gmx.de
holzapfel frank,frankywoodapple@googlemail.com
franz friedrich,franz_friedrich@hotmail.com
franz hellmich,franz_hellmich@yahoo.de
franz phan,franz_phan@yahoo.de
miller thomas,franz-mueller46@web.de
bergner franz,franz.bergner@t-online.de
eisenmann franz,franz.eisenmann@t-online.de
franz fenkl,franz.fenkl@online.de
eisenmann franz,franz.ironman@gmail.com
franz mayer,franz.mayer@freenet.de
mrazek franz,franz.mrazek@drei.at
rb franz muehlbacher muehlbacher,franz.muehlbacher345@web.de
oebel franz,franz.oebel@gmx.de
ruetten franz,franz.ruetten@online.de
stoffer franz,franz.stoffer@web.de
wienert franz-josef,franz.wienert@web.de
franz futterer,franzfu@hotmail.de
franz guenther,franzg98@gmail.com
franziska klammt,franzi053@web.de
petzsch berka,franzi1-2-3@email.de
kirwitz franziska,franzi220483@aol.com
rost franziska,franziskarost46@gmail.com
mehler franz-karl,franzkarl.mehler@gmx.de
kurzbach franz,franzkurzbach@gmail.com
sauer frank,frasa@email.de
franziska lick,frasi-l@live.de
weilbeer claudia,fraubeere@gmail.com
schrinner birbel,frautausendfuss@web.de
fred hoppe,frdhpp@aol.com
thomas neubauer,freakeone@gmx.net
becker fred,fred.becker@mail.ee
friedhelm dudjahn,fred.d@alice-dsl.net
fred dosch,fred.dosch7@gmail.com
schiefke fred,fred.schiefke@gmx.de
frederec albrecht,freddy.albrecht2@googlemail.com
hoffmann manfred,freddy.hoffmann@freenet.de
owusu frederick,freddy.owusu@yahoo.com
rieth friedrich,freddy.rieth@gmx.de
frederic bihm,fredericboehm@gmx.de
bremm frederick,frederick.bremm@gmx.de
fred migowski,fredmigowski@aol.com
kretzschmar fredo,fredo2@arcor.de
fredrik de haas,fredrikdehaas@web.de
geis manfred,fredvanhalen@aol.com
wolfgang mende,freeman.one@freenet.de
willi hibner,freewilly913@gmx.de
michael fregin,freginmichael@gmail.com
freimann helmut,freimannh@web.de
koch hilmar,freistilschamane@gmail.com
freitag peter,freitag-peter@web.de
freitag reinhard,freitag-sn@web.de
ingrid freitag,freitag.wanzleben@freenet.de
matthes fred,frekama@online.de
landau herry,frends20101@web.de
frenzer bernhard,frenzerb@gmail.com
dennis freudenberg,freudenberg-dennis@web.de
uwe freund,freund-dresden@t-online.de
herbert frey,freymusi@gmail.com
frick alfred,frick.alfred@gmx.de
fricke carlo,fricke.carlo@web.de
opitz fridolin,frido.nb@gmx.de
opitz fridolin,frido05@web.de
bernhardt frieder,friebern@gmx.de
jan hoffmann,friedarich1@gmail.com
friedel kleine,friedelkl@aol.com
griner friedrich,frieder1347@web.de
graf friedhold,friedgraf@directbox.com
meck friedhelm,friedhelmmeck@googlemail.com
friedhelm wist,friedi4@web.de
lauer friedrich,friedrich-lauer@web.de
boettcher friedrich,friedrich.b@gmx.de
friedrich hanselmann,friedrich.hanselmann@onlinehome.de
schade friedrich,friedrich.schade@t-online.de
friedrich schuh,friedrich.schuh@web.de
sergej friedrich,friedrich.sergej@web.de
wittmeier friedrich,friedwitt@gmx.de
friesel ridiger,friesel62@t-online.de
marquardt kurt,frikumar@yahoo.de
frisch markus,frima@web.de
hodzic rijad,fringe000@gmx.de
fritsch torsten,fritsch_torsten@web.de
sebastian wilke,frittenpalast@gmx.com
ernst fritz,fritz_roller@gmx.de
stelzl friedrich,fritzstelzl@aol.com
ralf kraus,frizzy1983@gmail.com
frank meyer,frmeyer@online.de
frihlich siegbert,froehlich-sieg@web.de
roessler frank,froessler@gmx.de
jan frohberg,frohberg.jan@gmail.com
holger fromm,frommy2001@yahoo.de
reni howe,fronis@gmx.de
malte fruechtenicht,fruechtenicht.horst@t-online.de
frank meyer,frv3000@aol.com
bathelt florian,fs-vip@web.de
franz soeroes,fs140268@gmx.de
dillschnitter thomas,fsc-koblenz@web.de
schifer frank,fschaefer64@freenet.de
schaper franz,fscp@arcor.de
johannes kuhn,fsjk@freenet.de
kuhn johannes,fsjk@gmx.de
binder fabian,fskate99@gmx.de
fischer peter,fspeter@aol.com
frank weps,fsw.weps@web.de
urban klaus,ft-urban@gmx.de
frank tippelt,ftippeltm@arcor.de
rb faith turk,fturk@yandex.com
marcus merkel,fubu_83@freenet.de
furchner henry,fuches@web.de
fuchs andreas,fuchs-holz-service@bluewin.ch
kite fuchs,fuchs1107@gmail.com
johann hausleitner,fuchsn-hans@web.de
hausleitner johann,fuchsn.hans@icloud.com
hardliner hardi,fuego84@hotmail.de
vilker michael,fuggy@web.de
ursula graf-menzel,fullflexgold@gmx.de
marzinek frank-horst,fum_marzinek@t-online.de
theodor rubrider,funat2000@hotmail.de
lilge tobias,funfight@web.de
monika funk-lemmert,funk-monika1@web.de
welke phil,funkyphil@gmx.de
husken ingo,funmann@web.de
schneider gudrun,funnycat184@aol.com
leindecker raoul,funsensation@yahoo.de
kaan kaan,furkan_kaan_58@hotmail.de
rubic zeljko,fussballclubkoeln@gmx.de
christian fui,fusschri93@gmx.de
klein torsten,fw.klein@web.de
wagner frank,fwagner2@gmx.net
weber karl-heinz,fww-weber@t-online.de
sergej quiring,fx-trade@web.de
mike erzgriber,fx@erzie.de
jung thomas,fx@home-jung.de
staatz falk,fx98@staatz.eu
hans-joerg endert,fxjoerg@web.de
hermann meindl,fxrubinservice@gmail.com
schneider franz,fxsch@web.de
krane ginter,fzspb1@live.de
guenter hammerer,g_hammerer@t-online.de
gergina slavova,g_slavova@yahoo.de
wickel gabriele,g_wickel@live.de
guenter eder,g-eder@gmx.de
ginther hanke,g-hanke@web.de
jutta hutter,g-hutter@t-online.de
cemil a.,g-star29@hotmail.de
angerstein gerhard,g.angerstein@yahoo.de
anton gisela,g.anton07@yahoo.de
armes gudrun,g.armes@gmx.de
baggio gianluigi,g.baggio@architetto-baggio.ch
brunhuber gerhard,g.brunhuber@googlemail.com
cammerer ginther,g.cammerer@gmail.com
gaetano campisi,g.campisi@campi-stuck.de
chkhaidze george,g.chkhaidze@europeanschool.ge
georgiou christos,g.chr@gmx.de
weil dieter,g.d.weil@gmx.de
fichtner guenther,g.fichtner@gmx.de
guenther franz,g.franz28@yahoo.de
franz guenther,g.franz40@gmx.de
guenther freitag,g.freitag@arcor.de
griter gert,g.g63@me.com
grinert gerhard,g.gruenert@freenet.de
heinrich gabriele,g.heinrich53@gmail.com
gerhard holzrichter,g.holzrichter@googlemail.com
eugen armin,g.huxholl@web.de
ginter jacobi,g.j.52@email.de
ginter jaster,g.jaster1@web.de
jucknischke gerhard,g.jucknischke@gmail.com
karl gert,g.karl24@gmx.de
gabi kubig,g.kubig@gmx.de
langer guenter,g.langer44@gmail.com
gerhard ludwig,g.ludwig53@googlemail.com
muratore girolamo,g.muratore63@gmail.com
nicole goepfert,g.n.goepfert@hotmail.de
ollmer ginter,g.ollmer@web.de
grzegorz piekarski,g.p.transporte@gmx.net
gista patzig,g.patzig1@web.de
rudat gerhard,g.rudat18@gmx.de
schweitzer gitta,g.schweitzer@gmx.tm
seibold ginther,g.seibold@seirotec.de
strohm guenter,g.strohm@web.de
guenter troitsch,g.troitsch@gmx.net
venskus gerhard,g.venskus@web.de
gabriele werdermann,g.werdermann@gmx.de
liehr michael,g13253398@gmx.de
uwe martin,g44uwe@web.de
gallbronner christian,ga.ch@gmx.de
gaas sergej,gaas@web.de
ferenc kiraly,gaazkiraly@gmail.com
jolanta gabrys,gab.jol.3108@wp.pl
anasto gab,gabanasto@hotmail.fr
gabriela dehrberg,gabidustin@arcor.de
gabriele richter,gabimatusch3@hotmail.de
oestermann gabriele,gabioestermann@googlemail.com
gabriel jacquier,gabjac053@gmail.com
josef gabler,gabler01@web.de
sebastian gabriel,gabriel.sebastian@web.de
gabriel ralph,gabriel@profilkonzept.de
gabriela barjami,gabriela-barjami@web.de
gabriela preiml,gabrielapreiml@aol.com
gabriele uhl-blisi,gabriele.blaesi@gmx.de
gania gabriele,gabriele.gania@web.de
hausegger gabriele,gabriele.hausegger@t-online.de
gabriele paschke,gabriele.paschke@me.com
faller gabriele,gabrielefaller@aol.com
hopfe gabiele,gabrielehopfe@gmail.com
gabriele noak,gabrielenoak@yahoo.de
gabriele voigt-,gabrielevoigt7@googlemail.com
heisel gabriele,gaby.heisel@web.de
risinger klaus,gaby.klaus05@arcor.de
gaby scheuer,gabysch1802@gmail.com
girtner andreas,gaertner1164@gmx.de
bertholdt marco,gaertnerei.bertholdt@t-online.de
van susanne,gaestehauslaedine@arcor.de
guenther zank,gagsal@gmx.de
georg claudia,galageorg@t-online.de
martin baensch,galileo49@web.de
galina geht,galina282000@yahoo.de
wilflinger sandra,gallas.sandra1@yahoo.de
geht galina,galochka28@hotmail.com
tietsch franko,galya1974@web.de
kell hannes,gambin@gmx.net
hackspacher erich,gamdschi@outlook.com
alex berg,game_97@live.de
manuel griihaber,gamecase.inc@web.de
patrick landsmann,gamegodheads@gmail.com
marcel feldmann,gamer-nvidia@web.de
axel kaube,ganjaman09@gmx.net
diyar darwich,gantedman@gmail.com
seppinger sepp,garanteedaccent@googlemail.com
kieiling ralf,garcia-fashion@web.de
smars marco,garcon1972@gmail.com
hartmut veit,garfunkel053@freenet.de
werz siegfried,garinsurance@gmx.de
unger harri,garriu@arcor.de
garik akopdshanjan,garry4508@yahoo.de
gaudermann franz,gaudermannf@t-online.de
mathias sascha,gaulo76@web.de
volker webel,gavomails@gmail.com
georg c.,gb.1000@yahoo.de
gerd baumbach,gbachbaum@web.de
bart georg,gbart@gmx.de
berger gabriele,gbe@bscberger.de
winfried pfauth,gbg.oelsnitz@gmx.de
und gerd,gbikarus@t-online.de
karsten kunze,gbkunze@aol.com
varga gabor,gbor.aquiline.varga@gmail.com
ginter bremert,gbremert@yahoo.com
duck gerd,gd_online@yahoo.de
erdenebileg battsogt,gdewghg@yahoo.com
biber sergej,gdiserb@googlemail.com
maeffert kristin,gdmaeffert@gmx.de
maeffert kristin,gdmaeffert@yahoo.com
dransmann guido,gdransmann@gmail.com
neugebauer gerhard,ge.neugebauer@web.de
gebele franz,gebelefra@aol.com
benjamin diewock,gebrauchtwarenhaendler@gmx.de
eduard gebel,gedicom@web.de
halit er,gedizegemen@aol.com
jochheim michael,gegeil2011@hotmail.de
michel gerd,gegenabzocker@online.de
andreas gehrke,gehrkea@web.de
thorsten geifes,geifes@web.de
geiger max,geigermax@t-online.de
gogo prdo,geill@t-online.de
geisler bjirn,geisler-b@gmx.de
geiiler steffen,geissler.st@web.de
geissler thorsten,geisslerthorsten85@googlemail.com
gert jackob,gejot48@yahoo.de
gandert peter,gelax-angelika@web.de
lehmann alexander,geld_@online.de
heino diesselberg,geld-money@gentlemansclub.de
ruediger zodrow,geld-zo@web.de
blaettner herbert,gelderfolg-@web.de
schlenkrich wolfgang,geldfinder@googlemail.com
armel mboupda,geldforfree@yahoo.fr
daniel gast,geldhai55@web.de
nowak reinhold,geldinternet52@gmail.com
cernea cristina,geldmagnet84@gmx.de
frey gabi,geldmasch@arcor.de
striethorst andr5ea,geldschnecke@yahoo.de
dziergwa mike,geldvermehrung@online.de
blume angela,geli67@t-online.de
heinrich gellermann,gellermann.h@gmx.de
frank lucassen,gemotec@aol.com
mueller gerd,gemunet100@gmail.com
goebel roger,genau@cool.ms
mario geneuxdf,geneuss@arcor.de
gennerich jirg,genni58@web.de
arndt jennifer,gennifer90@hotmail.de
heinrich heimbuch,genrich49@gmx.de
"herbert, arno gunter gentsch",gentschgunter@hotmail.com
gottschling georg,geogott@gmx.de
schepers georg,georg-schepers@web.de
beate georg,georg.hierstetter@t-online.de
georg lenk,georg.lenk@web.de
wilts georg,georg.wilts@gmx.de
hansen georg,georg@georg-hansen.eu
mast georg,georg@mast-bellheim.de
sunkler georg,georg@sunkler.de
schifer georg,georg449@hotmail.de
muresan george,georgemorro@yahoo.de
hashem george,georges_hashem@hotmail.com
georges hawa,georgeshawa2011@hotmail.de
kern georg,georgkern@gmx.net
wernetshammer georg,georgpeterw@aol.com
weide georg,georgweide@web.de
gerald gitz,gerald_1963@web.de
zwitkovits gerald,gerald-zwitkovits@gmx.at
gerald kuntze,gerald.kuntze@gmx.net
gerald schneider,gerald.pache@gmail.com
huber ulrike,gerald2006@gmx.de
gerald hinrichsen,geraldhinrichsen@aol.com
popitz gerald,geraldpopitz@gmail.com
gerald risel,geraldroesel@web.de
simon gerald,geraldsimon@gmx.de
wandel gerald,geraldwandel@hotmail.de
christian gerber,gerber@acc-usingen.de
gerd gmelin,gerd-gmelin@gmx.de
max gerd,gerd-windisch@t-online.de
gerhard winkler,gerd-winkler@web.de
gilbert gerd,gerd.gilbert@gmx.de
pietsch gerd,gerd.pietsch@gmx.net
seidel gerd,gerd.tine@gmx.de
kleiner gerda,gerda.kleiner@web.de
brendel gerd,gerdbrendel@hotmail.de
immervoll gerd,gerdimmervoll@gmx.de
gerhard kollwitz,gerdkollwitz@gmail.com
gerhard lauterborn,gerdlauterborn@gmx.de
schelhammer gerd,gerdschelhammer@web.de
gerd seiffert,gerdseiffert@yahoo.de
unger gerd,gerdunger@msn.com
weiler gerd,gerdweiler@gmx.net
cserhati gergo,gergo.cserhati@gmail.com
kurt gergolla,gergolla@t-online.de
gerhard steiner,gerhard_steiner@gmx.at
weidner gerhard,gerhard_weiden@freenet.de
plderl gerhard,gerhard-107@gmx.at
wenzel gerhard,gerhard-d.s.h@gmx.de
abler gerhard,gerhard.abler@t-online.de
husslein gerhard,gerhard.husslein@web.de
orend gerhard,gerhard.orend@gmail.com
raith gerhard,gerhard.raith@hotmail.com
gerhard wuttke,gerhard.wuttke@googlemail.com
sokoll gerhard,gerhard56@gmx.de
elisabeth anna,gerhardseyrer@online.de
storf gerhard,gerhardstorf@googlemail.com
theiss gerhard,gerhardtheiss@web.de
miller gerhard,gerhardw56@web.de
waldner gerhard,gerhardwaldner@web.de
gerhard zuern,gerhardx@gmx.de
mario gericke,gerickem@hotmail.de
frank gerlach,gerlach.frank6@googlemail.com
roman tukin,germancheater1@gmail.com
miller stephan,germania5000@yahoo.de
ott gero,gero.ott@gmx.de
harant gerold,gerold.harant@arcor.de
gerolf stach,gerolf.stach@googlemail.com
deike gerrit,gerrit.deike@ryu-gu.de
sven gerrlich,gerrlichstudios@gmail.com
hummel gerald,gerryhummel@yahoo.de
kaufmann gert,gert.kaufmann@gmx.de
rither gert,gert.roether@gmail.com
rygusiak gert,gert.rygusiak@gmx.de
staer gert,gert.staer@yahoo.de
gert-siegfried thomee,gert.thomee@t-online.de
knorr gert,gertknorr@gmx.de
dietrich gertraud,gertraud-d@gmx.de
eisner gertraud,gertraud4@gmx.de
schoch sonja,ges-verlag@t-online.de
thoma markus,geschaeft10@gmx.de
erik moor,getman92@web.de
lenz georg,getraenke-lenz@web.de
mashliakevich dzmitry,gewinner1111@gmail.com
mario geyer,geyerm@gmx.de
weber volker,gfav375@gmail.com
gert michler,gfbmg@gmx.de
fehrmann gert,gfgert1@gmail.com
flieier gerhard,gfliesser@web.de
gebhardt guenter,gg120250@gmail.com
ginter geldermann,ggeldermann@web.de
gesell gabriele,ggesell@web.de
gerhard goos,ggoos@ira.uka.de
gerd gitzl,ggpunica@aol.com
graefenberg gunter,ggraefenberg@aol.com
harders gerd,gh@besser-wissen.net
haemmerle georg,ghaemm@web.de
haidar ghassan,ghahai@hotmail.de
heckendorn guenter,gheckendorn@mail.de
clemens wagner,ghostguide@freenet.de
giacomo krieger,giacomocasamento1992@yahoo.de
giancarli letti,giancarli@gmx.de
jean+roger binz,gianni.binz@gmail.com
gieser peter,giedro@aol.com
giese tino,giese.tino@gmail.com
thomas arning,giggy88@gmx.de
petrowski waltraud,gila-lr@web.de
jung taifun,gilavendel@online.de
kunii gisela,gillak@web.de
gilbert milkau,gille080478@gmx.de
andreas schmidt,gimemoney@web.de
gimmillaro antonino,gimmillaroa@gmx.de
maier ginther,gino_maier@web.de
marino gero,gioi100@yahoo.de
giorgio scaletta,giorgio-scaletta@gmx.de
joerg voigt,giovanne1705@aol.com
ali giovanni,giovanniali@hotmail.de
girmann richard,girmann@t-online.de
aster gisela,gisela.aster@gmail.com
gisela lill,gisela.lill@web.de
gisela denzin,gisela@denzin.eu
alex laks,gister12@rambler.ru
miller brigitte,gitte-13@gmx.de
andrei nistor,giuliano_nistor@yahoo.com
nigito giuseppe,giuseppe.nigito@web.de
kistakacs eva,gizi86@freemail.hu
jeschke gottfried,gj39@arcor.de
juble gilbert,gjuble@msn.com
juhn ginter,gjuhn@gmx.de
george kanne,gkanne100@gmail.com
karla gerald,gkarla@web.de