subscriber_id,subscriber_email_address,subscriber_first_name,subscriber_last_name,subscriber_state,subscriber_zip_code,subscriber_country,subscriber_company,subscriber_city,subscriber_dob,subscriber_phone,subscriber_address,subscriber_date_added,subscriber_ip,subscriber_extra_fields,Global Field,Custom Samani 5,
145968665,jig.samani1@redcappi.com,,,,,,,,,,,2017-09-11 19:14:17,,, ,
145968666,jig.samani2@redcappi.com,,,,,,,,,,,2017-09-11 19:14:17,,,,
145968669,jig.samani4@redcappi.com,,,,,,,,,,,2017-09-11 19:14:51,,,,
145968668,jig.samani5@redcappi.com,,,,,,,,,,,2017-09-11 19:14:51,,, ,,
145968667,jig.samani6@redcappi.com,,,,,,,,,,,2017-09-11 19:14:51,,,,,
145968664,jig.samani@redcappi.com,,,,,,,,,,,2017-09-11 19:14:17,,,,,
145968671,samani2@redcappi.com,,,,,,,,,,,2017-09-11 19:15:20,,,,,
145968672,samani3@redcappi.com,,,,,,,,,,,2017-09-11 19:15:20,,,,,
145968670,samani@redcappi.com,,,,,,,,,,,2017-09-11 19:15:20,,,,,
